<?xml version="1.0" standalone="no"?>
<!DOCTYPE svg PUBLIC "-//W3C//DTD SVG 1.1//EN" "http://www.w3.org/Graphics/SVG/1.1/DTD/svg11.dtd" >
<svg xmlns="http://www.w3.org/2000/svg" xmlns:xlink="http://www.w3.org/1999/xlink" version="1.1">
<metadata>
Created by FontForge 20170731 at Tue May 10 22:09:03 2011
 By Aleksey,,,
Copyright (c) Mark Simonson, 2005. All rights reserved.
</metadata>
<defs>
<font id="ProximaNova-BoldIt" horiz-adv-x="1200" >
  <font-face 
    font-family="Proxima Nova"
    font-weight="700"
    font-style="italic"
    font-stretch="normal"
    units-per-em="2048"
    panose-1="2 0 5 6 3 0 0 2 0 4"
    ascent="1618"
    descent="-430"
    x-height="989"
    cap-height="1366"
    bbox="-383 -408 2322 1849"
    underline-thickness="40"
    underline-position="-311"
    unicode-range="U+0020-FB04"
  />
<missing-glyph horiz-adv-x="989" 
d="M176 -184v1724h719v-1724h-719zM240 -123h589v1602h-589v-1602z" />
    <glyph glyph-name=".notdef" horiz-adv-x="989" 
d="M176 -184v1724h719v-1724h-719zM240 -123h589v1602h-589v-1602z" />
    <glyph glyph-name=".null" horiz-adv-x="0" 
 />
    <glyph glyph-name="nonmarkingreturn" horiz-adv-x="682" 
 />
    <glyph glyph-name="space" unicode=" " horiz-adv-x="526" 
 />
    <glyph glyph-name="exclam" unicode="!" horiz-adv-x="522" 
d="M16 129q0 74 54.5 127t128.5 53q63 0 107 -45t44 -108q0 -74 -54 -127.5t-128 -53.5q-63 0 -107.5 45.5t-44.5 108.5zM133 446l162 920h313l-243 -920h-232z" />
    <glyph glyph-name="quotedbl" unicode="&#x22;" horiz-adv-x="831" 
d="M231 768q16 414 19 455q2 70 48 116.5t114 46.5q51 0 88 -35.5t37 -90.5q0 -27 -15 -62l-176 -430h-115zM604 768q16 414 19 455q2 70 49 116.5t114 46.5q49 0 86 -35.5t37 -90.5q0 -37 -14 -62l-176 -430h-115z" />
    <glyph glyph-name="numbersign" unicode="#" horiz-adv-x="1265" 
d="M0 348l90 166h201l186 338h-198l86 164h204l193 350h192l-192 -350h192l193 350h194l-194 -350h199l-86 -164h-205l-189 -338h207l-88 -166h-211l-190 -348h-195l195 348h-195l-192 -348h-193l195 348h-199zM483 514h191l188 338h-192z" />
    <glyph glyph-name="dollar" unicode="$" horiz-adv-x="1257" 
d="M18 231l181 215q104 -139 293 -190l69 319q-78 29 -132 56.5t-111.5 70.5t-87 103.5t-29.5 136.5q0 178 146.5 311t387.5 133h8l41 187h193l-47 -209q217 -51 350 -199l-182 -209q-84 98 -228 144l-63 -287q78 -29 134 -56.5t114.5 -71.5t89.5 -104.5t31 -136.5
q0 -195 -146.5 -332t-392.5 -137h-16l-39 -180h-193l45 201q-283 57 -416 235zM508 995q0 -59 123 -114l55 249q-76 -2 -127 -41t-51 -94zM678 233q92 4 140 50.5t48 103.5q0 66 -127 121z" />
    <glyph glyph-name="percent" unicode="%" horiz-adv-x="1552" 
d="M156 0l1173 1366h156l-1176 -1366h-153zM168 989q0 174 111.5 285.5t267.5 111.5q135 0 231 -77.5t96 -204.5q0 -174 -111 -285.5t-267 -111.5q-137 0 -232.5 77.5t-95.5 204.5zM352 1006q0 -59 42 -99.5t108 -40.5q78 0 132 61.5t54 157.5q0 61 -42 101.5t-105 40.5
q-78 0 -133.5 -61.5t-55.5 -159.5zM758 260q0 174 111.5 285.5t267.5 111.5q135 0 231 -78.5t96 -205.5q0 -172 -111.5 -285t-267.5 -113q-137 0 -232 78t-95 207zM944 276q0 -61 41 -101t107 -40q78 0 132 61.5t54 159.5q0 59 -42 99.5t-106 40.5q-78 0 -132 -61.5
t-54 -158.5z" />
    <glyph glyph-name="ampersand" unicode="&#x26;" horiz-adv-x="1325" 
d="M10 336q0 180 104.5 282.5t286.5 169.5q-34 112 -34 210v6q0 162 120.5 272t294.5 110q152 0 254.5 -72.5t102.5 -203.5q0 -70 -26 -127t-60.5 -94t-99 -73t-111.5 -54.5t-127 -46.5q29 -57 76 -140q74 -135 94 -165q113 123 184 249l186 -116q-131 -186 -260 -310
q39 -59 166 -233h-311q-31 37 -57 76q-170 -100 -340 -101q-199 0 -321 90.5t-122 270.5zM297 367q0 -88 56.5 -137.5t142.5 -49.5t184 60q-74 109 -115 184q-76 143 -98 192q-170 -94 -170 -249zM629 1006q0 -61 22 -134q125 43 189.5 90.5t64.5 122.5q0 55 -31.5 84
t-80.5 29q-63 0 -113.5 -51t-50.5 -141z" />
    <glyph glyph-name="quotesingle" unicode="'" horiz-adv-x="460" 
d="M231 768q16 414 19 455q2 70 48 116.5t114 46.5q51 0 88 -35.5t37 -90.5q0 -27 -15 -62l-176 -430h-115z" />
    <glyph glyph-name="parenleft" unicode="(" horiz-adv-x="608" 
d="M47 219q0 319 150.5 633.5t410.5 550.5l135 -139q-422 -508 -421 -1117v-5q0 -211 77 -441l-188 -109q-164 250 -164 627z" />
    <glyph glyph-name="parenright" unicode=")" horiz-adv-x="610" 
d="M-137 -268q422 508 422 1116q0 213 -78 446l188 109q164 -250 164 -627q0 -319 -150.5 -633.5t-410.5 -550.5z" />
    <glyph glyph-name="asterisk" unicode="*" horiz-adv-x="718" 
d="M156 1001l221 78l-176 123l88 103l162 -140l38 221h132l-64 -231l217 98l39 -118l-219 -78l174 -123l-90 -103l-162 140l-37 -221h-133l64 233l-217 -98z" />
    <glyph glyph-name="plus" unicode="+" horiz-adv-x="1032" 
d="M84 610l35 162h368l88 402h179l-88 -402h368l-37 -162h-368l-92 -415h-177l93 415h-369z" />
    <glyph glyph-name="comma" unicode="," horiz-adv-x="522" 
d="M-37 -172q156 74 201 172h-23q-53 0 -89 35t-36 98q0 72 56.5 124t126.5 52q66 0 111.5 -44t45.5 -124q0 -115 -86 -231.5t-215 -177.5z" />
    <glyph glyph-name="hyphen" unicode="-" horiz-adv-x="614" 
d="M37 385l47 221h491l-47 -221h-491z" />
    <glyph glyph-name="period" unicode="." horiz-adv-x="526" 
d="M16 129q0 74 54.5 127t128.5 53q63 0 107 -45t44 -108q0 -74 -54 -127.5t-128 -53.5q-63 0 -107.5 45.5t-44.5 108.5z" />
    <glyph glyph-name="slash" unicode="/" horiz-adv-x="673" 
d="M-123 -41l805 1448h197l-807 -1448h-195z" />
    <glyph glyph-name="zero" unicode="0" horiz-adv-x="1269" 
d="M88 526q0 221 84 418t242.5 319.5t353.5 122.5q225 0 358.5 -144t133.5 -404q0 -223 -84 -419t-241.5 -320t-352.5 -124q-225 0 -359.5 145.5t-134.5 405.5zM383 512q0 -129 55 -204t170 -75q106 0 191.5 101.5t125.5 240t40 277.5q0 127 -55.5 201.5t-170.5 74.5
q-158 0 -257 -197.5t-99 -418.5z" />
    <glyph glyph-name="one" unicode="1" horiz-adv-x="841" 
d="M117 934l526 432h254l-301 -1366h-291l217 991l-276 -231z" />
    <glyph glyph-name="two" unicode="2" horiz-adv-x="1228" 
d="M-14 0l59 270l317 183l237 149q122 80 183.5 136.5t100.5 115.5t39 117q0 74 -69 116.5t-177 42.5q-195 0 -340 -122l-123 209q90 80 220 124.5t265 44.5q221 0 375 -105t154 -292q0 -190 -183.5 -368.5t-531.5 -364.5h557l-55 -256h-1028z" />
    <glyph glyph-name="three" unicode="3" horiz-adv-x="1202" 
d="M-27 260l195 176q61 -96 174 -149.5t227 -53.5q117 0 179.5 52.5t62.5 136.5q0 143 -250 143q-123 0 -164 -4l58 262q23 -2 192 -2q266 0 266 158q0 68 -71.5 108.5t-198.5 40.5q-190 0 -332 -110l-104 199q185 169 462 169h3q248 0 394 -94t146 -262q0 -131 -112.5 -225
t-255.5 -113q256 -63 256 -299q0 -180 -154 -299t-375 -119q-193 0 -357.5 76t-240.5 209z" />
    <glyph glyph-name="four" unicode="4" horiz-adv-x="1222" 
d="M2 283l57 254l709 829h418l-182 -827h174l-56 -256h-176l-61 -283h-291l61 283h-653zM342 539h369l127 569z" />
    <glyph glyph-name="five" unicode="5" horiz-adv-x="1245" 
d="M37 240l207 182q117 -188 366 -189q117 0 187.5 64.5t70.5 159.5q0 86 -70.5 134t-187.5 48q-141 0 -250 -82l-188 76l162 733h938l-55 -256h-648l-71 -322q111 88 272 89q174 0 289 -103.5t115 -284.5q0 -215 -159 -364.5t-409 -149.5q-391 0 -569 265z" />
    <glyph glyph-name="six" unicode="6" horiz-adv-x="1245" 
d="M80 504q0 227 83 424.5t254 327.5t398 130q287 0 457 -184l-180 -207q-98 133 -295 133q-139 0 -238.5 -97t-144.5 -238q-8 -20 -19 -54q59 61 155.5 102.5t199.5 41.5q186 0 310 -102.5t124 -274.5q0 -219 -167.5 -375t-400.5 -156q-252 0 -394 139.5t-142 389.5z
M365 475q0 -109 70.5 -175.5t181 -66.5t186.5 69t76 167q0 82 -75 131t-188 49q-137 0 -249 -102q-2 -16 -2 -72z" />
    <glyph glyph-name="seven" unicode="7" horiz-adv-x="1116" 
d="M127 0l731 1110h-674l56 256h1026l-45 -203l-760 -1163h-334z" />
    <glyph glyph-name="eight" unicode="8" horiz-adv-x="1241" 
d="M31 342q0 135 99 240.5t280 150.5q-90 39 -148.5 112t-58.5 163q0 127 83 216t200.5 125.5t252.5 36.5q215 0 374 -91t159 -259q0 -133 -96.5 -229t-257.5 -129q102 -53 164.5 -133t62.5 -176q0 -178 -166 -286t-395 -108q-233 0 -393 93.5t-160 273.5zM340 395
q0 -78 70.5 -120t187.5 -42q98 0 176 47.5t78 118.5q0 61 -65.5 108.5t-151.5 67.5q-127 -6 -211 -54t-84 -126zM494 973q0 -51 61 -95.5t135 -60.5q121 8 194.5 51t73.5 113q0 63 -68.5 104t-168.5 41q-94 0 -160.5 -42t-66.5 -111z" />
    <glyph glyph-name="nine" unicode="9" horiz-adv-x="1245" 
d="M53 162l178 207q102 -133 297 -133q139 0 237.5 97t145.5 238q12 29 17 54q-59 -61 -155.5 -102.5t-199.5 -41.5q-186 0 -309 102.5t-123 274.5q0 217 167.5 374t398.5 157q252 0 394 -139.5t142 -389.5q0 -168 -49 -324.5t-139 -281.5t-231.5 -201t-313.5 -76
q-289 0 -457 185zM444 895q0 -82 76 -131t189 -49q139 0 247 102q2 16 2 72q0 109 -70.5 175t-181 66t-186.5 -68.5t-76 -166.5z" />
    <glyph glyph-name="colon" unicode=":" horiz-adv-x="503" 
d="M16 129q0 74 54.5 127t128.5 53q63 0 107 -45t44 -108q0 -74 -54 -127.5t-128 -53.5q-63 0 -107.5 45.5t-44.5 108.5zM170 825q0 74 54.5 127.5t127.5 53.5q63 0 106.5 -45.5t43.5 -108.5q0 -74 -54.5 -127t-128.5 -53q-63 0 -106 45t-43 108z" />
    <glyph glyph-name="semicolon" unicode=";" horiz-adv-x="522" 
d="M-37 -172q156 74 201 172h-23q-53 0 -89 35t-36 98q0 72 56.5 124t126.5 52q66 0 111.5 -44t45.5 -124q0 -115 -86 -231.5t-215 -177.5zM170 825q0 74 54.5 127.5t127.5 53.5q63 0 106.5 -45.5t43.5 -108.5q0 -74 -54.5 -127t-128.5 -53q-63 0 -106 45t-43 108z" />
    <glyph glyph-name="less" unicode="&#x3c;" horiz-adv-x="1032" 
d="M78 592l43 188l1003 408l-45 -201l-794 -311l657 -307l-41 -185z" />
    <glyph glyph-name="equal" unicode="=" horiz-adv-x="1032" 
d="M39 412l37 159h913l-35 -159h-915zM125 797l35 161h913l-35 -161h-913z" />
    <glyph glyph-name="greater" unicode="&#x3e;" horiz-adv-x="1032" 
d="M-12 184l45 201l796 307l-659 312l41 184l823 -408l-41 -188z" />
    <glyph glyph-name="question" unicode="?" horiz-adv-x="933" 
d="M170 1233q181 153 413 153h3q184 0 308 -81.5t124 -221.5q0 -100 -47 -173.5t-113.5 -114.5t-134.5 -76t-115 -78t-47 -100q0 -33 23 -58l-238 -65q-35 63 -35 143q0 102 62.5 175t136.5 107t136.5 80t62.5 99q0 108 -163 108h-3q-141 0 -250 -98zM217 129q0 74 54.5 127
t127.5 53q63 0 106.5 -45t43.5 -108q0 -74 -53 -127.5t-127 -53.5q-63 0 -107.5 45.5t-44.5 108.5z" />
    <glyph glyph-name="at" unicode="@" horiz-adv-x="1603" 
d="M113 500q0 213 113.5 400t302 297t397.5 110q289 0 467 -181.5t178 -445.5q0 -238 -127 -372t-279 -134q-86 0 -136 44t-62 108l-2 12q-53 -76 -133 -120t-162 -44q-145 0 -231.5 96.5t-86.5 247.5q0 203 141.5 352.5t321.5 149.5t256 -137l23 108h231l-104 -499
q-6 -31 -7 -50q0 -92 76 -92q72 0 132.5 85t60.5 245q0 244 -153.5 395.5t-411.5 151.5q-289 0 -506 -217t-217 -506q0 -242 163.5 -406t413.5 -164q195 0 373 113l43 -61q-201 -129 -426 -129q-279 0 -464 185t-185 458zM592 539q0 -80 45 -130.5t123 -50.5q131 0 227 136
l51 237q-18 41 -60 73t-106 32q-119 0 -199.5 -90.5t-80.5 -206.5z" />
    <glyph glyph-name="A" unicode="A" horiz-adv-x="1400" 
d="M-119 0l828 1366h364l225 -1366h-315l-35 231h-586l-135 -231h-346zM500 487h426l-84 588z" />
    <glyph glyph-name="B" unicode="B" horiz-adv-x="1357" 
d="M25 0l301 1366h663q172 0 271.5 -95t99.5 -233q0 -135 -93 -239.5t-218 -116.5q92 -25 144 -102.5t52 -171.5q0 -164 -118.5 -286t-356.5 -122h-745zM373 256h377q94 0 149 51t55 127q0 59 -41 96t-108 37h-365zM498 823h366q98 0 141.5 47.5t43.5 116.5q0 51 -40 87
t-98 36h-350z" />
    <glyph glyph-name="C" unicode="C" horiz-adv-x="1406" 
d="M90 588q0 352 233.5 576.5t561.5 224.5q236 0 388 -109t218 -279l-279 -94q-39 106 -130 164.5t-212 58.5q-197 0 -336 -150.5t-139 -373.5q0 -162 104.5 -267.5t278.5 -105.5q88 0 176 43t146 115l225 -151q-109 -139 -260 -202t-303 -63q-289 0 -480.5 169t-191.5 444z
" />
    <glyph glyph-name="D" unicode="D" horiz-adv-x="1470" 
d="M25 0l301 1366h528q238 0 415 -165t177 -421q0 -113 -30 -220t-97.5 -209.5t-167.5 -179.5t-252 -124t-338 -47h-536zM373 256h241q240 0 385.5 146.5t145.5 357.5q0 150 -97.5 250t-246.5 100h-240z" />
    <glyph glyph-name="E" unicode="E" horiz-adv-x="1193" 
d="M25 0l301 1366h966l-57 -256h-674l-63 -287h659l-55 -256h-662l-67 -311h674l-56 -256h-966z" />
    <glyph glyph-name="F" unicode="F" horiz-adv-x="1169" 
d="M25 0l301 1366h966l-57 -256h-674l-63 -287h659l-55 -256h-662l-125 -567h-290z" />
    <glyph glyph-name="G" unicode="G" horiz-adv-x="1474" 
d="M90 588q0 346 233.5 573.5t587.5 227.5q205 0 350.5 -96.5t213.5 -241.5l-267 -115q-35 86 -129 140t-209 54q-193 0 -334 -151.5t-141 -372.5q0 -160 104.5 -266.5t278.5 -106.5q154 0 273 105l36 164h-362l57 256h654l-119 -531q-213 -252 -555 -252q-287 0 -479.5 168
t-192.5 445z" />
    <glyph glyph-name="H" unicode="H" horiz-adv-x="1497" 
d="M25 0l301 1366h290l-116 -537h643l119 537h292l-301 -1366h-292l126 575h-645l-127 -575h-290z" />
    <glyph glyph-name="I" unicode="I" horiz-adv-x="561" 
d="M25 0l301 1366h290l-301 -1366h-290z" />
    <glyph glyph-name="J" unicode="J" horiz-adv-x="995" 
d="M-59 129l157 219q74 -115 219 -115q96 0 158 58.5t84 161.5l201 913h293l-203 -917q-53 -242 -178 -358t-334 -116q-119 0 -226.5 39t-170.5 115z" />
    <glyph glyph-name="K" unicode="K" horiz-adv-x="1302" 
d="M25 0l301 1366h290l-129 -586l596 586h375l-684 -641l420 -725h-342l-299 559l-143 -139l-95 -420h-290z" />
    <glyph glyph-name="L" unicode="L" horiz-adv-x="1054" 
d="M12 0l301 1366h293l-246 -1110h578l-55 -256h-871z" />
    <glyph glyph-name="M" unicode="M" horiz-adv-x="1751" 
d="M25 0l301 1366h397l143 -854l520 854h420l-301 -1366h-293l218 985l-603 -985h-127l-168 985l-217 -985h-290z" />
    <glyph glyph-name="N" unicode="N" horiz-adv-x="1492" 
d="M25 0l301 1366h299l438 -870l194 870h291l-301 -1366h-280l-451 905l-201 -905h-290z" />
    <glyph glyph-name="O" unicode="O" horiz-adv-x="1566" 
d="M90 588q0 336 229.5 568.5t565.5 232.5q289 0 480 -168t191 -443q0 -336 -229 -569.5t-565 -233.5q-291 0 -481.5 168t-190.5 445zM395 606q0 -170 107.5 -271.5t275.5 -101.5q199 0 336 153t137 372q0 170 -108.5 271t-276.5 101q-199 0 -335 -152.5t-136 -371.5z" />
    <glyph glyph-name="P" unicode="P" horiz-adv-x="1280" 
d="M25 0l301 1366h624q162 0 271.5 -110.5t109.5 -268.5q0 -66 -17.5 -130t-59.5 -133t-104.5 -120t-161.5 -84t-222 -33h-342l-109 -487h-290zM479 743h303h2q109 0 176.5 60.5t67.5 152.5q0 68 -47 111t-123 43h-297z" />
    <glyph glyph-name="Q" unicode="Q" horiz-adv-x="1566" 
d="M90 588q0 336 229.5 568.5t565.5 232.5q289 0 480 -168t191 -443q0 -195 -81.5 -361.5t-225.5 -277.5l70 -110l-234 -113l-65 100q-133 -41 -258 -41q-291 0 -481.5 168t-190.5 445zM395 606q0 -170 107.5 -271.5t275.5 -101.5q47 0 99 11l-117 188l233 113l109 -172
q149 153 149 382q0 173 -108.5 274t-276.5 101q-199 0 -335 -152.5t-136 -371.5z" />
    <glyph glyph-name="R" unicode="R" horiz-adv-x="1316" 
d="M25 0l301 1366h583q172 0 297 -106.5t125 -278.5q0 -182 -110.5 -313t-278.5 -162l191 -506h-324l-162 485h-225l-107 -485h-290zM479 741h303h2q113 0 178.5 58.5t65.5 152.5q0 68 -52 113t-122 45h-293z" />
    <glyph glyph-name="S" unicode="S" horiz-adv-x="1228" 
d="M-2 231l180 215q72 -96 197 -154.5t264 -58.5q102 0 154.5 47.5t52.5 106.5q0 39 -37 69.5t-95.5 55.5t-130 48.5t-142 56t-129 73.5t-95.5 105.5t-37 146.5q0 178 146.5 311t388.5 133q164 0 308 -58t237 -163l-183 -209q-74 84 -185.5 129t-221.5 45
q-78 0 -130.5 -39.5t-52.5 -95.5q0 -47 69 -86t167 -72.5t196.5 -77.5t167 -124t68.5 -191q0 -195 -146.5 -332t-392.5 -137q-199 0 -364.5 71t-253.5 185z" />
    <glyph glyph-name="T" unicode="T" horiz-adv-x="1191" 
d="M186 1110l56 256h1089l-55 -256h-399l-244 -1110h-293l246 1110h-400z" />
    <glyph glyph-name="U" unicode="U" horiz-adv-x="1503" 
d="M135 453q0 39 10 94l181 819h295l-179 -813q-8 -25 -8 -68q2 -109 79 -181.5t216 -72.5q283 0 354 322l179 813h297l-183 -819q-59 -270 -210.5 -421t-436.5 -151q-287 0 -440.5 129t-153.5 349z" />
    <glyph glyph-name="V" unicode="V" horiz-adv-x="1400" 
d="M182 1366h316l147 -1049l608 1049h346l-827 -1366h-364z" />
    <glyph glyph-name="W" unicode="W" horiz-adv-x="1880" 
d="M193 1366h319l20 -987l478 987h227l41 -987l457 987h333l-690 -1366h-309l-33 938l-444 -938h-309z" />
    <glyph glyph-name="X" unicode="X" horiz-adv-x="1368" 
d="M-117 0l660 719l-328 647h330l223 -453l399 453h367l-621 -682l351 -684h-330l-248 485l-438 -485h-365z" />
    <glyph glyph-name="Y" unicode="Y" horiz-adv-x="1320" 
d="M182 1366h316l217 -547l459 547h346l-699 -807l-125 -559h-290l122 559z" />
    <glyph glyph-name="Z" unicode="Z" horiz-adv-x="1212" 
d="M-25 0l52 236l821 874h-627l55 256h1027l-50 -233l-825 -877h645l-57 -256h-1041z" />
    <glyph glyph-name="bracketleft" unicode="[" horiz-adv-x="573" 
d="M-102 -389l395 1778h442l-39 -175h-254l-317 -1429h254l-39 -174h-442z" />
    <glyph glyph-name="backslash" unicode="\" horiz-adv-x="673" 
d="M201 1407h188l164 -1448h-188z" />
    <glyph glyph-name="bracketright" unicode="]" horiz-adv-x="573" 
d="M-160 -389l37 174h254l318 1429h-254l38 175h441l-395 -1778h-439z" />
    <glyph glyph-name="asciicircum" unicode="^" horiz-adv-x="903" 
d="M78 682l471 684h190l164 -684h-182l-109 506l-331 -506h-203z" />
    <glyph glyph-name="underscore" unicode="_" horiz-adv-x="1155" 
d="M-172 -256l39 174h1165l-39 -174h-1165z" />
    <glyph glyph-name="uni02CB" unicode="`" horiz-adv-x="514" 
d="M207 1434h239l209 -295h-182z" />
    <glyph glyph-name="uni02CB" unicode="&#x2cb;" horiz-adv-x="514" 
d="M207 1434h239l209 -295h-182z" />
    <glyph glyph-name="a" unicode="a" 
d="M53 385q0 154 58.5 295t181 237.5t282.5 96.5q211 0 316 -156l27 131h262l-219 -989h-263l29 123q-125 -147 -297 -148q-170 0 -273.5 109t-103.5 301zM326 438q0 -104 61.5 -167.5t157.5 -63.5q133 0 227 119l76 342q-74 114 -232 114q-125 0 -207.5 -102t-82.5 -242z
" />
    <glyph glyph-name="b" unicode="b" 
d="M18 0l301 1366h261l-111 -500q125 147 299 148q170 0 272.5 -108.5t102.5 -301.5q0 -154 -58.5 -295t-180 -237.5t-281.5 -96.5q-211 0 -316 156l-28 -131h-261zM348 322q74 -115 232 -115q127 0 208.5 101.5t81.5 242.5q0 104 -61 167.5t-158 63.5q-131 0 -225 -118z
" />
    <glyph glyph-name="c" unicode="c" horiz-adv-x="1021" 
d="M57 426q0 246 167 417t409 171q285 0 401 -195l-194 -149q-65 112 -205 112h-2q-137 0 -224 -100t-87 -242q0 -109 70.5 -171t176.5 -62q123 0 207 98l142 -172q-146 -158 -375 -158q-221 0 -353.5 124t-132.5 327z" />
    <glyph glyph-name="d" unicode="d" 
d="M53 385q0 154 58.5 295t181 237.5t282.5 96.5q211 0 316 -156l110 508h263l-303 -1366h-263l29 123q-125 -147 -297 -148q-170 0 -273.5 109t-103.5 301zM326 438q0 -104 61.5 -167.5t157.5 -63.5q133 0 227 119l76 342q-74 114 -232 114q-125 0 -207.5 -102t-82.5 -242z
" />
    <glyph glyph-name="e" unicode="e" horiz-adv-x="1132" 
d="M57 420q0 246 164 420t408 174q195 0 319.5 -119t124.5 -322q0 -86 -20 -163h-736v-25q0 -72 73 -134.5t200 -62.5q156 0 250 72l80 -182q-150 -103 -351 -103q-236 0 -374 119t-138 326zM346 590h492h2q2 4 2 20q0 80 -59.5 135.5t-170.5 55.5q-102 0 -176 -62.5
t-90 -148.5z" />
    <glyph glyph-name="f" unicode="f" horiz-adv-x="669" 
d="M78 0l168 762h-164l51 227h162l8 41q86 356 371 356q178 0 274 -98l-131 -153q-41 39 -110 39q-57 0 -90 -35t-52 -109l-10 -41h203l-51 -227h-201l-168 -762h-260z" />
    <glyph glyph-name="g" unicode="g" horiz-adv-x="1198" 
d="M-45 -229l154 172q47 -63 134 -97t187 -34q229 0 281 254l20 94q-119 -152 -303 -152q-162 0 -267.5 100.5t-105.5 301.5q0 240 141.5 422t370.5 182q92 0 179.5 -42t140.5 -114l31 131h260l-205 -923q-25 -109 -69 -192t-96 -134t-116.5 -84t-127 -45t-130.5 -12
q-315 0 -479 172zM326 461q0 -100 61.5 -160.5t163.5 -60.5q129 0 223 114l70 308q-75 120 -239 120h-3q-121 0 -198.5 -93t-77.5 -228z" />
    <glyph glyph-name="h" unicode="h" horiz-adv-x="1187" 
d="M18 0l301 1366h263l-113 -504q160 152 330 152q143 0 226 -68.5t83 -183.5q0 -31 -10 -82l-150 -680h-260l131 600q8 33 8 57q0 125 -170 125q-115 0 -231 -116l-145 -666h-263z" />
    <glyph glyph-name="i" unicode="i" horiz-adv-x="518" 
d="M18 0l220 989h260l-219 -989h-261zM266 1229q0 80 54.5 128t119.5 48q61 0 101.5 -39t40.5 -94q0 -80 -55 -128t-121 -48q-59 0 -99.5 39t-40.5 94z" />
    <glyph glyph-name="j" unicode="j" horiz-adv-x="518" 
d="M-383 -317l109 184q45 -55 127 -55q121 0 157 161l228 1016h260l-226 -1016q-39 -180 -129 -277t-252 -97q-188 0 -274 84zM266 1229q0 80 54.5 128t119.5 48q61 0 101.5 -39t40.5 -94q0 -80 -55 -128t-121 -48q-59 0 -99.5 39t-40.5 94z" />
    <glyph glyph-name="k" unicode="k" horiz-adv-x="1097" 
d="M18 0l301 1366h261l-179 -801l461 424h330l-492 -448l285 -541h-315l-183 387l-153 -133l-55 -254h-261z" />
    <glyph glyph-name="l" unicode="l" horiz-adv-x="518" 
d="M18 0l301 1366h261l-301 -1366h-261z" />
    <glyph glyph-name="m" unicode="m" horiz-adv-x="1746" 
d="M18 0l220 989h260l-29 -127q145 152 301 152q129 0 204 -68.5t75 -124.5v-2q160 195 335 195q119 0 202 -67.5t83 -184.5q0 -33 -12 -82l-150 -680h-262l135 606q6 31 6 51q0 59 -40.5 92t-100.5 33q-106 0 -205 -114l-147 -668h-262l135 606q8 41 8 56q-2 55 -40 87.5
t-105 32.5q-100 0 -203 -114l-147 -668h-261z" />
    <glyph glyph-name="n" unicode="n" horiz-adv-x="1185" 
d="M18 0l220 989h260l-29 -127q160 152 330 152q143 0 226 -68.5t83 -183.5q0 -31 -10 -82l-150 -680h-262l133 600q8 37 8 57q0 125 -170 125q-113 0 -231 -114l-147 -668h-261z" />
    <glyph glyph-name="o" unicode="o" horiz-adv-x="1177" 
d="M55 426q0 238 164 413t408 175q231 0 361 -125t130 -326q0 -238 -163.5 -413t-409.5 -175q-231 0 -360.5 125t-129.5 326zM324 438q0 -106 61 -168.5t170 -62.5q127 0 210 102.5t83 241.5q0 109 -61.5 170t-168.5 61q-127 0 -210.5 -103.5t-83.5 -240.5z" />
    <glyph glyph-name="p" unicode="p" horiz-adv-x="1193" 
d="M-66 -377l304 1366h260l-29 -123q125 147 299 148q170 0 272.5 -108.5t102.5 -301.5q0 -154 -58.5 -295t-180 -237.5t-281.5 -96.5q-211 0 -316 156l-112 -508h-261zM348 322q74 -115 232 -115q127 0 208.5 101.5t81.5 242.5q0 104 -61 167.5t-158 63.5q-131 0 -225 -118
z" />
    <glyph glyph-name="q" unicode="q" horiz-adv-x="1193" 
d="M53 385q0 154 58.5 295t181 237.5t282.5 96.5q211 0 316 -156l27 131h262l-303 -1366h-263l113 500q-125 -147 -297 -148q-170 0 -273.5 109t-103.5 301zM326 438q0 -104 61.5 -167.5t157.5 -63.5q133 0 227 119l76 342q-74 114 -232 114q-125 0 -207.5 -102t-82.5 -242z
" />
    <glyph glyph-name="r" unicode="r" horiz-adv-x="737" 
d="M18 0l220 989h260l-29 -129q139 154 350 154l-57 -258q-49 12 -94 12q-141 0 -246 -119l-143 -649h-261z" />
    <glyph glyph-name="s" unicode="s" horiz-adv-x="976" 
d="M-16 154l145 182q49 -59 147.5 -107.5t198.5 -48.5q63 0 103 30t40 73q0 35 -52 62.5t-125.5 50t-147.5 53t-126 90t-52 141.5q0 137 109.5 235.5t297.5 98.5q125 0 236.5 -43t183.5 -117l-135 -174q-39 49 -122 89t-169 40q-68 0 -105.5 -26.5t-37.5 -65.5
q0 -33 52 -57.5t126 -48t147.5 -54.5t126 -91t52.5 -144q0 -147 -115.5 -247t-312.5 -100q-137 0 -260 46.5t-205 132.5z" />
    <glyph glyph-name="t" unicode="t" horiz-adv-x="692" 
d="M76 762l51 227h164l59 271h260l-59 -271h201l-52 -227h-200l-97 -434q-2 -12 -2 -35q0 -86 97 -86q47 0 71 20l9 -209q-60 -43 -162 -43q-137 0 -216 54.5t-79 160.5q0 35 8 68l111 504h-164z" />
    <glyph glyph-name="u" unicode="u" horiz-adv-x="1185" 
d="M74 227q0 41 12 82l150 680h260l-131 -598q-8 -37 -9 -57q0 -63 46.5 -95t121.5 -32q117 0 234 117l147 665h260l-219 -989h-260l29 127q-160 -152 -330 -152q-143 0 -227 69t-84 183z" />
    <glyph glyph-name="v" unicode="v" horiz-adv-x="1050" 
d="M96 989h271l104 -688l414 688h286l-616 -989h-281z" />
    <glyph glyph-name="w" unicode="w" horiz-adv-x="1576" 
d="M109 989h262l37 -665l364 665h232l67 -665l334 665h281l-521 -989h-278l-62 674l-356 -674h-279z" />
    <glyph glyph-name="x" unicode="x" horiz-adv-x="1032" 
d="M-111 0l463 508l-223 481h283l135 -303l272 303h299l-438 -481l242 -508h-281l-154 334l-301 -334h-297z" />
    <glyph glyph-name="y" unicode="y" horiz-adv-x="1050" 
d="M-98 -377l86 225q31 -14 100 -14q78 0 123 68l61 94l-176 993h271l104 -688l414 688h286l-720 -1151q-80 -131 -169 -185t-214 -54q-96 -1 -166 24z" />
    <glyph glyph-name="z" unicode="z" horiz-adv-x="980" 
d="M-25 0l43 195l564 567h-437l50 227h800l-43 -186l-571 -576h450l-47 -227h-809z" />
    <glyph glyph-name="braceleft" unicode="{" horiz-adv-x="589" 
d="M-20 -127q0 37 8 64l80 352q4 25 4 37q0 45 -21.5 72.5t-60.5 27.5l33 147q109 0 137 138l78 350q74 328 391 328h123l-37 -175h-125q-129 0 -164 -151l-88 -399q-37 -154 -133 -183q59 -35 59 -114q0 -37 -8 -70l-80 -358q-4 -25 -4 -39q0 -51 33 -83t82 -32h110
l-41 -174h-92q-117 0 -200.5 73.5t-83.5 188.5z" />
    <glyph glyph-name="bar" unicode="|" horiz-adv-x="442" 
d="M176 -41v1448h174v-1448h-174z" />
    <glyph glyph-name="braceright" unicode="}" horiz-adv-x="589" 
d="M-164 -389l39 174h123q129 0 164 152l90 399q33 152 133 184q-59 31 -59 113q0 37 8 69l78 359q4 25 4 39q0 51 -32 82.5t-81 31.5h-110l38 175h93q117 0 200.5 -74t83.5 -189q0 -39 -8 -63l-78 -352q-4 -25 -4 -37q0 -45 21.5 -73t58.5 -28l-33 -147q-109 0 -137 -137
l-78 -350q-37 -164 -138 -246t-251 -82h-125z" />
    <glyph glyph-name="asciitilde" unicode="~" horiz-adv-x="1044" 
d="M133 864q106 500 387 500q82 0 130 -37t61.5 -90t19.5 -107.5t21.5 -91.5t50.5 -37q59 0 116.5 110t86.5 255l172 -20q-109 -502 -387 -502q-100 0 -149.5 56t-53.5 124t-20.5 124t-57.5 56q-59 0 -116.5 -107.5t-86.5 -252.5z" />
    <glyph glyph-name="uni00A0" unicode="&#xa0;" horiz-adv-x="526" 
 />
    <glyph glyph-name="exclamdown" unicode="&#xa1;" horiz-adv-x="522" 
d="M-90 -377l246 920h229l-160 -920h-315zM170 834q0 74 54 127t128 53q63 0 106.5 -45t43.5 -109q0 -74 -54.5 -127t-128.5 -53q-63 0 -106 45t-43 109z" />
    <glyph glyph-name="cent" unicode="&#xa2;" horiz-adv-x="1021" 
d="M57 426q0 238 158 408t391 180l33 143h188l-36 -164q164 -43 243 -174l-194 -149q-37 59 -103 90l-121 -549q94 18 160 94l142 -172q-137 -150 -355 -158l-39 -180h-188l45 201q-152 41 -238 154.5t-86 275.5zM322 440q0 -141 112 -202l119 534q-104 -27 -167.5 -120
t-63.5 -212z" />
    <glyph glyph-name="sterling" unicode="&#xa3;" horiz-adv-x="1126" 
d="M25 184q125 55 204.5 148.5t79.5 193.5q0 16 -2 25h-250l37 166h162q-68 139 -68 225q0 184 158 314t379 130q176 0 308 -72.5t173 -201.5l-262 -108q-14 68 -71.5 106.5t-135.5 38.5q-98 0 -165.5 -67.5t-67.5 -170.5q0 -29 6 -56.5t13 -45.5t20.5 -47t19.5 -45h291
l-39 -166h-231q-14 -84 -71.5 -159t-119.5 -107q49 16 92 16q61 0 150.5 -34t142.5 -34q96 0 166 74l64 -231q-98 -102 -252 -103q-96 0 -243.5 45t-205.5 45q-98 0 -229 -77z" />
    <glyph glyph-name="currency" unicode="&#xa4;" horiz-adv-x="1069" 
d="M23 283l157 129q-63 115 -63 221q0 195 164 354l-76 100l65 54l80 -99q123 88 273 88q166 0 292 -116l160 131l51 -62l-159 -131q63 -104 63 -221q0 -186 -164 -354l78 -98l-70 -56l-75 101q-125 -90 -271 -91q-170 0 -297 121l-161 -135zM217 645q0 -139 89 -226
t229 -87q158 0 276.5 115.5t118.5 271.5q0 139 -89 226t-229 87q-158 0 -276.5 -115.5t-118.5 -271.5z" />
    <glyph glyph-name="yen" unicode="&#xa5;" horiz-adv-x="1320" 
d="M-12 236l37 159h469l36 164h-469l35 162h365l-277 645h316l217 -547l459 547h346l-559 -645h362l-37 -162h-465l-37 -164h465l-34 -159h-467l-52 -236h-290l51 236h-471z" />
    <glyph glyph-name="brokenbar" unicode="&#xa6;" horiz-adv-x="442" 
d="M176 -41v647h174v-647h-174zM176 760v647h174v-647h-174z" />
    <glyph glyph-name="section" unicode="&#xa7;" horiz-adv-x="991" 
d="M-66 6l146 154q57 -66 150.5 -105t191.5 -39q72 0 117 35t45 86q0 53 -78 93t-170 66t-170 93.5t-78 170t66.5 178t195.5 110.5q-149 70 -149 215q0 141 113.5 232t291.5 91q287 0 436 -149l-135 -143q-47 53 -126 81.5t-163 28.5q-76 0 -118.5 -31.5t-42.5 -78.5
q0 -43 51 -73t125 -53.5t147.5 -53t124.5 -89t51 -143.5q0 -100 -64.5 -183t-172.5 -120q125 -70 125 -203q0 -145 -118 -243.5t-302 -98.5q-317 0 -490 172zM350 608q0 -53 45 -84.5t133 -60.5q80 20 119 64.5t39 95.5q0 96 -141 139q-96 -12 -145.5 -54t-49.5 -100z" />
    <glyph glyph-name="dieresis" unicode="&#xa8;" horiz-adv-x="604" 
d="M113 1235q0 61 48 108.5t107 47.5q53 0 88 -35t35 -88q0 -61 -47 -108.5t-108 -47.5q-51 0 -87 36t-36 87zM545 1235q0 61 48 108.5t107 47.5q53 0 89 -35t36 -88q0 -61 -48 -108.5t-109 -47.5q-53 0 -88 36t-35 87z" />
    <glyph glyph-name="copyright" unicode="&#xa9;" horiz-adv-x="1593" 
d="M131 684q0 293 206 500t498.5 207t500.5 -207t208 -500t-208 -500t-500 -207q-291 0 -498 207t-207 500zM205 684q0 -260 185 -446.5t445.5 -186.5t447.5 186.5t187 446.5t-186 446.5t-448 186.5q-260 0 -445.5 -186.5t-185.5 -446.5zM412 629q0 205 144 346t333 141
q227 0 328 -164l-78 -55q-76 137 -254 137q-145 0 -262 -116.5t-117 -286.5q0 -123 82 -210t217 -87q131 0 233 98l49 -70q-132 -110 -279 -110h-3q-178 0 -285.5 106.5t-107.5 270.5z" />
    <glyph glyph-name="ordfeminine" unicode="&#xaa;" horiz-adv-x="847" 
d="M158 924q0 168 100 285.5t245.5 117.5t213.5 -94l16 78h191l-144 -643h-190l16 80q-82 -96 -192 -97q-109 0 -182.5 72t-73.5 201zM354 946q0 -72 38 -108.5t102 -36.5q78 0 143 69l55 250q-45 58 -141 58q-84 0 -140.5 -69t-56.5 -163z" />
    <glyph glyph-name="guillemotleft" unicode="&#xab;" horiz-adv-x="1079" 
d="M59 498l410 362h250l-418 -373l238 -358h-234zM449 498l409 362h248l-418 -373l238 -358h-232z" />
    <glyph glyph-name="logicalnot" unicode="&#xac;" horiz-adv-x="1054" 
d="M125 797l35 161h913l-119 -546h-168l86 385h-747z" />
    <glyph glyph-name="uni00AD" unicode="&#xad;" horiz-adv-x="614" 
d="M37 385l47 221h491l-47 -221h-491z" />
    <glyph glyph-name="registered" unicode="&#xae;" horiz-adv-x="1011" 
d="M172 952.5q0 180.5 127 307t307 126.5t307 -126t127 -308q0 -180 -128 -307t-308 -127t-306 127t-126 307.5zM238 952q0 -154 106.5 -261t260 -107t262 108t108.5 260q0 154 -108.5 261.5t-262 107.5t-260 -106.5t-106.5 -262.5zM385 702l109 498h190q63 0 104 -37
t41 -94q0 -70 -51 -119t-112 -49l90 -199h-82l-86 197h-90l-43 -197h-70zM512 963h131q49 0 81 28.5t32 71.5q0 76 -88 76h-117z" />
    <glyph glyph-name="uni203E" unicode="&#xaf;" horiz-adv-x="743" 
d="M158 1210l32 150h742l-33 -150h-741z" />
    <glyph glyph-name="uni203E" unicode="&#x203e;" horiz-adv-x="743" 
d="M158 1210l32 150h742l-33 -150h-741z" />
    <glyph glyph-name="degree" unicode="&#xb0;" horiz-adv-x="636" 
d="M176 1108q0 115 81 196.5t195.5 81.5t195.5 -81.5t81 -196.5q0 -113 -81 -193.5t-195.5 -80.5t-195.5 79.5t-81 194.5zM319 1108q0 -55 38 -94t93.5 -39t96.5 39t41 94q0 57 -40 97t-95 40q-57 0 -95.5 -40t-38.5 -97z" />
    <glyph glyph-name="plusminus" unicode="&#xb1;" horiz-adv-x="1032" 
d="M-51 0l35 162h913l-35 -162h-913zM96 668l35 161h369l90 402h176l-88 -402h366l-34 -161h-369l-92 -416h-178l94 416h-369z" />
    <glyph glyph-name="uni00B2" unicode="&#xb2;" horiz-adv-x="815" 
d="M174 862l35 152q317 184 423.5 267t106.5 157q0 47 -37.5 72.5t-99.5 25.5q-137 0 -229 -88l-82 131q127 115 317 115q145 0 239.5 -63.5t94.5 -174.5q0 -109 -108.5 -209t-335.5 -227h354l-33 -158h-645z" />
    <glyph glyph-name="uni00B3" unicode="&#xb3;" horiz-adv-x="815" 
d="M186 997l123 121q79 -112 233 -112h3q66 0 100.5 30.5t34.5 77.5q0 88 -182 88q-55 0 -68 -2l33 156q49 -4 133 -4q147 0 147 96q0 43 -47 65.5t-114 22.5q-125 0 -213 -74l-68 123q125 109 299 109q156 0 250 -57.5t94 -159.5q0 -82 -60.5 -140.5t-166.5 -66.5
q70 -16 115 -62t45 -116q0 -96 -88.5 -170t-235.5 -74q-123 0 -221.5 40t-145.5 109z" />
    <glyph glyph-name="acute" unicode="&#xb4;" horiz-adv-x="514" 
d="M137 1139l340 295h244l-397 -295h-187z" />
    <glyph glyph-name="mu" unicode="&#xb5;" horiz-adv-x="1185" 
d="M-66 -377l304 1366h260l-133 -600q-8 -34 -8 -61q0 -123 149 -123q135 0 250 114l149 670h260l-219 -989h-260l25 125q-166 -150 -379 -150q-23 0 -60 5l-77 -357h-261z" />
    <glyph glyph-name="mu" unicode="&#x3bc;" horiz-adv-x="1185" 
d="M-66 -377l304 1366h260l-133 -600q-8 -34 -8 -61q0 -123 149 -123q135 0 250 114l149 670h260l-219 -989h-260l25 125q-166 -150 -379 -150q-23 0 -60 5l-77 -357h-261z" />
    <glyph glyph-name="paragraph" unicode="&#xb6;" horiz-adv-x="919" 
d="M162 981q0 150 115.5 267.5t281.5 117.5h457l-348 -1571h-129l321 1444h-162l-319 -1444h-129l192 867q-117 0 -198.5 91t-81.5 228z" />
    <glyph glyph-name="uni2219" unicode="&#xb7;" horiz-adv-x="526" 
d="M96 489q0 74 54.5 126.5t128.5 52.5q63 0 106 -44t43 -108q0 -74 -54 -127t-126 -53q-63 0 -107.5 45t-44.5 108z" />
    <glyph glyph-name="uni2219" unicode="&#x2219;" horiz-adv-x="526" 
d="M96 489q0 74 54.5 126.5t128.5 52.5q63 0 106 -44t43 -108q0 -74 -54 -127t-126 -53q-63 0 -107.5 45t-44.5 108z" />
    <glyph glyph-name="cedilla" unicode="&#xb8;" horiz-adv-x="452" 
d="M-182 -315l71 96q78 -72 174 -72q45 0 73 19.5t28 52.5q0 49 -60 49q-37 0 -61 -29l-82 54l98 168h129l-79 -127q27 20 63 20q53 0 87 -34t34 -93q0 -84 -66 -136t-166 -52q-160 0 -243 84z" />
    <glyph glyph-name="uni00B9" unicode="&#xb9;" horiz-adv-x="585" 
d="M213 1407l340 274h170l-180 -819h-199l123 559l-164 -135z" />
    <glyph glyph-name="ordmasculine" unicode="&#xba;" horiz-adv-x="829" 
d="M162 950q0 158 116.5 267.5t272.5 109.5q152 0 242 -83t90 -216q0 -158 -115.5 -267.5t-271.5 -109.5q-154 0 -244 83t-90 216zM356 944q0 -66 39 -103.5t105 -37.5q88 0 139 69.5t51 157.5q0 66 -39 103.5t-104 37.5q-88 0 -139.5 -69.5t-51.5 -157.5z" />
    <glyph glyph-name="guillemotright" unicode="&#xbb;" horiz-adv-x="1079" 
d="M-23 129l418 373l-237 358h233l246 -368l-410 -363h-250zM367 129l417 373l-237 358h231l246 -368l-410 -363h-247z" />
    <glyph glyph-name="onequarter" unicode="&#xbc;" horiz-adv-x="1705" 
d="M143 1092l340 274h170l-180 -819h-199l123 559l-164 -135zM172 0l1174 1366h157l-1175 -1366h-156zM879 176l30 133l437 510h274l-109 -489h107l-33 -154h-108l-37 -176h-197l39 176h-403zM1110 330h207l69 315z" />
    <glyph glyph-name="onehalf" unicode="&#xbd;" horiz-adv-x="1775" 
d="M143 1092l340 274h170l-180 -819h-199l123 559l-164 -135zM172 0l1174 1366h157l-1175 -1366h-156zM944 0l35 152q317 184 423.5 267t106.5 156q0 47 -37.5 73t-99.5 26q-137 0 -229 -88l-82 131q126 114 314 114h3q145 0 239.5 -63t94.5 -174q0 -109 -108.5 -209
t-335.5 -227h354l-33 -158h-645z" />
    <glyph glyph-name="threequarters" unicode="&#xbe;" horiz-adv-x="1886" 
d="M117 682l123 121q80 -113 235 -113q66 0 100.5 31t34.5 78q0 88 -182 88q-55 0 -68 -2l33 155q49 -4 133 -4q147 0 148 97q0 43 -47 65.5t-115 22.5q-125 0 -213 -74l-68 123q124 108 296 108h3q156 0 250 -57t94 -160q0 -82 -60 -140t-167 -67q70 -16 115 -62t45 -116
q0 -96 -88 -170t-236 -74q-123 0 -221 40t-145 110zM352 0l1174 1366h157l-1175 -1366h-156zM1057 176l30 133l437 510h274l-108 -489h106l-33 -154h-108l-37 -176h-197l39 176h-403zM1288 330h207l70 315z" />
    <glyph glyph-name="questiondown" unicode="&#xbf;" horiz-adv-x="815" 
d="M-88 -96q0 100 47 174t114.5 116t134 75.5t114 77.5t47.5 99q0 35 -23 60l240 63q32 -57 32 -138q0 -87 -40.5 -150.5t-99 -99.5t-117 -66.5t-99.5 -67.5t-41 -82q0 -51 43 -79.5t125 -28.5q139 0 248 98l125 -201q-181 -153 -413 -153h-3q-184 0 -309 81.5t-125 221.5z
M381 831q0 74 54 127.5t128 53.5q63 0 106.5 -45t43.5 -109q0 -74 -53.5 -127t-127.5 -53q-63 0 -107 45t-44 108z" />
    <glyph glyph-name="Agrave" unicode="&#xc0;" horiz-adv-x="1400" 
d="M-119 0l828 1366h364l225 -1366h-315l-35 231h-586l-135 -231h-346zM500 487h426l-84 588zM641 1786h240l209 -295h-183z" />
    <glyph glyph-name="Aacute" unicode="&#xc1;" horiz-adv-x="1400" 
d="M-119 0l828 1366h364l225 -1366h-315l-35 231h-586l-135 -231h-346zM500 487h426l-84 588zM750 1491l340 295h243l-397 -295h-186z" />
    <glyph glyph-name="Acircumflex" unicode="&#xc2;" horiz-adv-x="1400" 
d="M-119 0l828 1366h364l225 -1366h-315l-35 231h-586l-135 -231h-346zM500 487h426l-84 588zM616 1491l254 295h234l127 -295h-156l-110 182l-185 -182h-164z" />
    <glyph glyph-name="Atilde" unicode="&#xc3;" horiz-adv-x="1400" 
d="M-119 0l828 1366h364l225 -1366h-315l-35 231h-586l-135 -231h-346zM500 487h426l-84 588zM588 1499q27 137 85 206t163 69q61 0 103 -35t73.5 -69t70.5 -34q61 0 93 125h139q-29 -137 -87.5 -205.5t-162.5 -68.5q-49 0 -86 21.5t-55.5 48t-46 48t-58.5 21.5
q-66 0 -92 -127h-139z" />
    <glyph glyph-name="Adieresis" unicode="&#xc4;" horiz-adv-x="1400" 
d="M-119 0l828 1366h364l225 -1366h-315l-35 231h-586l-135 -231h-346zM500 487h426l-84 588zM590 1589q0 61 48 108.5t107 47.5q53 0 88 -35t35 -88q0 -61 -47 -108.5t-108 -47.5q-53 0 -88 35t-35 88zM1022 1589q0 61 48 108.5t108 47.5q53 0 89 -35t36 -88
q0 -61 -48.5 -108.5t-109.5 -47.5q-51 0 -87 35t-36 88z" />
    <glyph glyph-name="Aring" unicode="&#xc5;" horiz-adv-x="1400" 
d="M-119 0l828 1366h364l225 -1366h-315l-35 231h-586l-135 -231h-346zM500 487h426l-84 588zM733 1614q0 94 69.5 164.5t166.5 70.5q88 0 142 -54t54 -142q0 -96 -70.5 -166t-164.5 -70q-88 0 -142.5 54.5t-54.5 142.5zM854 1626q0 -39 23.5 -63.5t62.5 -24.5
q41 0 72.5 30.5t31.5 71.5q0 39 -23.5 64t-62.5 25q-41 0 -72.5 -31t-31.5 -72z" />
    <glyph glyph-name="AE" unicode="&#xc6;" horiz-adv-x="1982" 
d="M-129 0l1133 1366h1083l-55 -256h-676l-62 -287h660l-58 -256h-659l-70 -311h676l-57 -256h-967l51 231h-471l-186 -231h-342zM594 487h334l125 574z" />
    <glyph glyph-name="Ccedilla" unicode="&#xc7;" horiz-adv-x="1406" 
d="M90 588q0 352 233.5 576.5t561.5 224.5q236 0 388 -109t218 -279l-279 -94q-39 106 -130 164.5t-212 58.5q-197 0 -336 -150.5t-139 -373.5q0 -162 104.5 -267.5t278.5 -105.5q88 0 176 43t146 115l225 -151q-109 -139 -260 -202t-303 -63q-29 0 -41 2l-51 -81
q27 20 63 20q53 0 87 -34t34 -93q0 -84 -65.5 -136t-165.5 -52q-160 0 -244 84l72 96q78 -72 174 -72q45 0 72.5 19.5t27.5 52.5q0 49 -59 49q-37 0 -62 -29l-82 54l80 137q-227 45 -369.5 203.5t-142.5 392.5z" />
    <glyph glyph-name="Egrave" unicode="&#xc8;" horiz-adv-x="1193" 
d="M25 0l301 1366h966l-57 -256h-674l-63 -287h659l-55 -256h-662l-67 -311h674l-56 -256h-966zM559 1786h240l209 -295h-183z" />
    <glyph glyph-name="Eacute" unicode="&#xc9;" horiz-adv-x="1193" 
d="M25 0l301 1366h966l-57 -256h-674l-63 -287h659l-55 -256h-662l-67 -311h674l-56 -256h-966zM666 1491l340 295h243l-397 -295h-186z" />
    <glyph glyph-name="Ecircumflex" unicode="&#xca;" horiz-adv-x="1193" 
d="M25 0l301 1366h966l-57 -256h-674l-63 -287h659l-55 -256h-662l-67 -311h674l-56 -256h-966zM530 1491l254 295h234l127 -295h-156l-110 182l-185 -182h-164z" />
    <glyph glyph-name="Edieresis" unicode="&#xcb;" horiz-adv-x="1193" 
d="M25 0l301 1366h966l-57 -256h-674l-63 -287h659l-55 -256h-662l-67 -311h674l-56 -256h-966zM510 1589q0 61 48 108.5t108 47.5q53 0 87.5 -35t34.5 -88q0 -61 -47 -108.5t-108 -47.5q-51 0 -87 35t-36 88zM942 1589q0 61 48 108.5t108 47.5q53 0 89 -35t36 -88
q0 -61 -48.5 -108.5t-109.5 -47.5q-53 0 -88 35t-35 88z" />
    <glyph glyph-name="Igrave" unicode="&#xcc;" horiz-adv-x="561" 
d="M25 0l301 1366h290l-301 -1366h-290zM219 1786h240l209 -295h-183z" />
    <glyph glyph-name="Iacute" unicode="&#xcd;" horiz-adv-x="561" 
d="M25 0l301 1366h290l-301 -1366h-290zM334 1491l340 295h244l-398 -295h-186z" />
    <glyph glyph-name="Icircumflex" unicode="&#xce;" horiz-adv-x="561" 
d="M25 0l301 1366h290l-301 -1366h-290zM193 1491l253 295h234l127 -295h-156l-110 182l-185 -182h-163z" />
    <glyph glyph-name="Idieresis" unicode="&#xcf;" horiz-adv-x="561" 
d="M25 0l301 1366h290l-301 -1366h-290zM170 1589q0 61 48 108.5t108 47.5q53 0 88 -35t35 -88q0 -61 -47.5 -108.5t-108.5 -47.5q-51 0 -87 35t-36 88zM602 1589q0 61 48 108.5t108 47.5q53 0 89 -35t36 -88q0 -61 -48.5 -108.5t-109.5 -47.5q-53 0 -88 35t-35 88z" />
    <glyph glyph-name="Eth" unicode="&#xd0;" horiz-adv-x="1519" 
d="M33 567l51 234h168l125 565h528q238 0 415 -165t177 -421q0 -113 -29.5 -220t-97 -209.5t-168 -179.5t-252.5 -124t-338 -47h-536l125 567h-168zM424 256h246q240 2 383 147.5t143 356.5q0 150 -97.5 250t-246.5 100h-240l-69 -309h305l-53 -234h-303z" />
    <glyph glyph-name="Ntilde" unicode="&#xd1;" horiz-adv-x="1492" 
d="M25 0l301 1366h299l438 -870l194 870h291l-301 -1366h-280l-451 905l-201 -905h-290zM631 1499q27 137 85 206t163 69q49 0 85.5 -21.5t56 -47.5t47.5 -47.5t58 -21.5q61 0 93 125h139q-29 -137 -87.5 -205.5t-162.5 -68.5q-49 0 -86 21.5t-55.5 48t-46 48t-58.5 21.5
q-66 0 -92 -127h-139z" />
    <glyph glyph-name="Ograve" unicode="&#xd2;" horiz-adv-x="1566" 
d="M90 588q0 336 229.5 568.5t565.5 232.5q289 0 480 -168t191 -443q0 -336 -229 -569.5t-565 -233.5q-291 0 -481.5 168t-190.5 445zM395 606q0 -170 107.5 -271.5t275.5 -101.5q199 0 336 153t137 372q0 170 -108.5 271t-276.5 101q-199 0 -335 -152.5t-136 -371.5z
M729 1786h240l209 -295h-183z" />
    <glyph glyph-name="Oacute" unicode="&#xd3;" horiz-adv-x="1566" 
d="M90 588q0 336 229.5 568.5t565.5 232.5q289 0 480 -168t191 -443q0 -336 -229 -569.5t-565 -233.5q-291 0 -481.5 168t-190.5 445zM395 606q0 -170 107.5 -271.5t275.5 -101.5q199 0 336 153t137 372q0 170 -108.5 271t-276.5 101q-199 0 -335 -152.5t-136 -371.5z
M834 1491l340 295h243l-397 -295h-186z" />
    <glyph glyph-name="Ocircumflex" unicode="&#xd4;" horiz-adv-x="1566" 
d="M90 588q0 336 229.5 568.5t565.5 232.5q289 0 480 -168t191 -443q0 -336 -229 -569.5t-565 -233.5q-291 0 -481.5 168t-190.5 445zM395 606q0 -170 107.5 -271.5t275.5 -101.5q199 0 336 153t137 372q0 170 -108.5 271t-276.5 101q-199 0 -335 -152.5t-136 -371.5z
M700 1491l254 295h234l127 -295h-156l-110 182l-185 -182h-164z" />
    <glyph glyph-name="Otilde" unicode="&#xd5;" horiz-adv-x="1566" 
d="M90 588q0 336 229.5 568.5t565.5 232.5q289 0 480 -168t191 -443q0 -336 -229 -569.5t-565 -233.5q-291 0 -481.5 168t-190.5 445zM395 606q0 -170 107.5 -271.5t275.5 -101.5q199 0 336 153t137 372q0 170 -108.5 271t-276.5 101q-199 0 -335 -152.5t-136 -371.5z
M672 1499q27 137 85 206t163 69q49 0 85.5 -21.5t56 -47.5t47.5 -47.5t58 -21.5q61 0 93 125h139q-29 -137 -87.5 -205.5t-162.5 -68.5q-49 0 -86 21.5t-55.5 48t-46 48t-58.5 21.5q-66 0 -92 -127h-139z" />
    <glyph glyph-name="Odieresis" unicode="&#xd6;" horiz-adv-x="1566" 
d="M90 588q0 336 229.5 568.5t565.5 232.5q289 0 480 -168t191 -443q0 -336 -229 -569.5t-565 -233.5q-291 0 -481.5 168t-190.5 445zM395 606q0 -170 107.5 -271.5t275.5 -101.5q199 0 336 153t137 372q0 170 -108.5 271t-276.5 101q-199 0 -335 -152.5t-136 -371.5z
M676 1589q0 61 48 108.5t107 47.5q53 0 88 -35t35 -88q0 -61 -47 -108.5t-108 -47.5q-53 0 -88 35t-35 88zM1108 1589q0 61 48 108.5t108 47.5q53 0 89 -35t36 -88q0 -61 -48.5 -108.5t-109.5 -47.5q-51 0 -87 35t-36 88z" />
    <glyph glyph-name="multiply" unicode="&#xd7;" horiz-adv-x="1032" 
d="M84 399l360 295l-221 285l129 104l219 -284l359 293l100 -123l-358 -295l217 -285l-127 -102l-219 282l-359 -293z" />
    <glyph glyph-name="Oslash" unicode="&#xd8;" horiz-adv-x="1566" 
d="M31 0l194 199q-135 158 -135 389q0 336 229.5 568.5t565.5 232.5q233 0 403 -111l86 88h209l-180 -182q153 -163 153 -403q0 -339 -229 -572.5t-565 -233.5q-248 0 -424 123l-96 -98h-211zM395 606q0 -106 45 -190l645 655q-94 59 -219 59q-199 0 -335 -152.5
t-136 -371.5zM541 305q96 -72 237 -72q199 0 336 153t137 372q0 119 -59 211z" />
    <glyph glyph-name="Ugrave" unicode="&#xd9;" horiz-adv-x="1503" 
d="M135 453q0 39 10 94l181 819h295l-179 -813q-8 -25 -8 -68q2 -109 79 -181.5t216 -72.5q283 0 354 322l179 813h297l-183 -819q-59 -270 -210.5 -421t-436.5 -151q-287 0 -440.5 129t-153.5 349zM696 1786h240l209 -295h-182z" />
    <glyph glyph-name="Uacute" unicode="&#xda;" horiz-adv-x="1503" 
d="M135 453q0 39 10 94l181 819h295l-179 -813q-8 -25 -8 -68q2 -109 79 -181.5t216 -72.5q283 0 354 322l179 813h297l-183 -819q-59 -270 -210.5 -421t-436.5 -151q-287 0 -440.5 129t-153.5 349zM803 1491l340 295h243l-397 -295h-186z" />
    <glyph glyph-name="Ucircumflex" unicode="&#xdb;" horiz-adv-x="1503" 
d="M135 453q0 39 10 94l181 819h295l-179 -813q-8 -25 -8 -68q2 -109 79 -181.5t216 -72.5q283 0 354 322l179 813h297l-183 -819q-59 -270 -210.5 -421t-436.5 -151q-287 0 -440.5 129t-153.5 349zM676 1491l254 295h233l127 -295h-155l-111 182l-184 -182h-164z" />
    <glyph glyph-name="Udieresis" unicode="&#xdc;" horiz-adv-x="1503" 
d="M135 453q0 39 10 94l181 819h295l-179 -813q-8 -25 -8 -68q2 -109 79 -181.5t216 -72.5q283 0 354 322l179 813h297l-183 -819q-59 -270 -210.5 -421t-436.5 -151q-287 0 -440.5 129t-153.5 349zM645 1589q0 61 48 108.5t108 47.5q53 0 88 -35t35 -88q0 -61 -47.5 -108.5
t-108.5 -47.5q-51 0 -87 35t-36 88zM1077 1589q0 61 48.5 108.5t107.5 47.5q53 0 89 -35t36 -88q0 -61 -48 -108.5t-110 -47.5q-53 0 -88 35t-35 88z" />
    <glyph glyph-name="Yacute" unicode="&#xdd;" horiz-adv-x="1320" 
d="M182 1366h316l217 -547l459 547h346l-699 -807l-125 -559h-290l122 559zM715 1491l340 295h243l-397 -295h-186z" />
    <glyph glyph-name="Thorn" unicode="&#xde;" horiz-adv-x="1280" 
d="M25 0l301 1366h290l-47 -221h334q162 0 270.5 -110.5t108.5 -266.5q0 -90 -31.5 -175t-95 -160t-176.5 -121t-260 -46h-344l-60 -266h-290zM432 522h303q113 0 178.5 63.5t65.5 151.5q0 68 -48 111t-122 43h-297z" />
    <glyph glyph-name="germandbls" unicode="&#xdf;" horiz-adv-x="1316" 
d="M18 0l215 973q39 182 163 297.5t327 115.5q168 0 301 -79.5t133 -204.5q0 -76 -37 -134.5t-89 -92t-104.5 -60.5t-89 -57.5t-36.5 -65.5q0 -31 46 -54.5t111.5 -44t132 -50t112.5 -87t46 -137.5q0 -141 -117.5 -242.5t-300.5 -101.5q-143 0 -246.5 44t-191.5 139l146 166
q119 -139 301 -140q68 0 108.5 31t40.5 74q0 35 -46 59.5t-111.5 45t-132 47t-112.5 80.5t-46 130q0 78 34.5 138.5t85 94.5t100.5 60.5t85 53t35 57.5q0 45 -47.5 72.5t-122.5 27.5q-174 0 -217 -182l-213 -973h-263z" />
    <glyph glyph-name="agrave" unicode="&#xe0;" 
d="M53 385q0 154 58.5 295t181 237.5t282.5 96.5q211 0 316 -156l27 131h262l-219 -989h-263l29 123q-125 -147 -297 -148q-170 0 -273.5 109t-103.5 301zM326 438q0 -104 61.5 -167.5t157.5 -63.5q133 0 227 119l76 342q-74 114 -232 114q-125 0 -207.5 -102t-82.5 -242z
M416 1434h239l209 -295h-182z" />
    <glyph glyph-name="aacute" unicode="&#xe1;" 
d="M53 385q0 154 58.5 295t181 237.5t282.5 96.5q211 0 316 -156l27 131h262l-219 -989h-263l29 123q-125 -147 -297 -148q-170 0 -273.5 109t-103.5 301zM326 438q0 -104 61.5 -167.5t157.5 -63.5q133 0 227 119l76 342q-74 114 -232 114q-125 0 -207.5 -102t-82.5 -242z
M524 1139l340 295h244l-397 -295h-187z" />
    <glyph glyph-name="acircumflex" unicode="&#xe2;" 
d="M53 385q0 154 58.5 295t181 237.5t282.5 96.5q211 0 316 -156l27 131h262l-219 -989h-263l29 123q-125 -147 -297 -148q-170 0 -273.5 109t-103.5 301zM326 438q0 -104 61.5 -167.5t157.5 -63.5q133 0 227 119l76 342q-74 114 -232 114q-125 0 -207.5 -102t-82.5 -242z
M393 1139l254 295h234l127 -295h-156l-111 182l-184 -182h-164z" />
    <glyph glyph-name="atilde" unicode="&#xe3;" 
d="M53 385q0 154 58.5 295t181 237.5t282.5 96.5q211 0 316 -156l27 131h262l-219 -989h-263l29 123q-125 -147 -297 -148q-170 0 -273.5 109t-103.5 301zM326 438q0 -104 61.5 -167.5t157.5 -63.5q133 0 227 119l76 342q-74 114 -232 114q-125 0 -207.5 -102t-82.5 -242z
M362 1147q27 137 85.5 205.5t162.5 68.5q61 0 103.5 -34.5t74 -68.5t70.5 -34q61 0 92 125h140q-29 -137 -87.5 -205.5t-162.5 -68.5q-49 0 -86 21.5t-55.5 48t-46 48t-58.5 21.5q-66 0 -92 -127h-140z" />
    <glyph glyph-name="adieresis" unicode="&#xe4;" 
d="M53 385q0 154 58.5 295t181 237.5t282.5 96.5q211 0 316 -156l27 131h262l-219 -989h-263l29 123q-125 -147 -297 -148q-170 0 -273.5 109t-103.5 301zM326 438q0 -104 61.5 -167.5t157.5 -63.5q133 0 227 119l76 342q-74 114 -232 114q-125 0 -207.5 -102t-82.5 -242z
M369 1235q0 61 48 108.5t107 47.5q53 0 88 -35t35 -88q0 -61 -47 -108.5t-108 -47.5q-53 0 -88 36t-35 87zM801 1235q0 61 48 108.5t107 47.5q53 0 89 -35t36 -88q0 -61 -48 -108.5t-109 -47.5q-51 0 -87 36t-36 87z" />
    <glyph glyph-name="aring" unicode="&#xe5;" 
d="M53 385q0 154 58.5 295t181 237.5t282.5 96.5q211 0 316 -156l27 131h262l-219 -989h-263l29 123q-125 -147 -297 -148q-170 0 -273.5 109t-103.5 301zM326 438q0 -104 61.5 -167.5t157.5 -63.5q133 0 227 119l76 342q-74 114 -232 114q-125 0 -207.5 -102t-82.5 -242z
M522 1303q0 94 71 164.5t165 70.5q88 0 142 -54t54 -143q0 -96 -69.5 -165.5t-165.5 -69.5q-88 0 -142.5 54t-54.5 143zM643 1315q0 -39 23.5 -63.5t62.5 -24.5q41 0 73 30.5t32 71.5q0 39 -24 63.5t-62 24.5q-41 0 -73 -30.5t-32 -71.5z" />
    <glyph glyph-name="ae" unicode="&#xe6;" horiz-adv-x="1871" 
d="M53 385q0 156 58.5 296t180.5 236.5t281 96.5q100 0 184.5 -41t131.5 -115l29 131h262l-27 -115q133 139 299 140q174 0 267 -107.5t93 -314.5q0 -104 -20 -182h-731q0 -4 -1 -12.5t-1 -12.5q0 -72 73.5 -132t200.5 -60q145 0 246 73l80 -188q-150 -103 -322 -103
q-250 0 -342 187l-34 -162h-263l29 123q-125 -147 -297 -147q-1 -1 -2 -1q-170 0 -272 109q-103 109 -103 301zM326 438q0 -104 61.5 -167.5t157.5 -63.5q131 0 227 119l76 342q-74 114 -232 114q-125 0 -207.5 -102t-82.5 -242zM1087 590h492q0 2 1 10t1 10
q0 82 -57.5 136.5t-167.5 54.5q-100 0 -175 -62.5t-94 -148.5z" />
    <glyph glyph-name="ccedilla" unicode="&#xe7;" horiz-adv-x="1021" 
d="M57 426q0 246 167 417t409 171q285 0 401 -195l-194 -149q-65 112 -205 112h-2q-137 0 -224 -100t-87 -242q0 -109 70.5 -171t176.5 -62q123 0 207 98l142 -172q-145 -158 -375 -158h-15l-49 -79q25 20 64 20q51 0 86 -34t35 -93q0 -84 -66 -136t-166 -52q-160 0 -244 84
l72 96q78 -72 174 -72q45 0 73 19.5t28 52.5q0 49 -60 49q-37 0 -61 -29l-82 54l78 135q-164 35 -258.5 150.5t-94.5 285.5z" />
    <glyph glyph-name="egrave" unicode="&#xe8;" horiz-adv-x="1132" 
d="M57 420q0 246 164 420t408 174q195 0 319.5 -119t124.5 -322q0 -86 -20 -163h-736v-25q0 -72 73 -134.5t200 -62.5q156 0 250 72l80 -182q-150 -103 -351 -103q-236 0 -374 119t-138 326zM346 590h492h2q2 4 2 20q0 80 -59.5 135.5t-170.5 55.5q-102 0 -176 -62.5
t-90 -148.5zM440 1434h240l209 -295h-182z" />
    <glyph glyph-name="eacute" unicode="&#xe9;" horiz-adv-x="1132" 
d="M57 420q0 246 164 420t408 174q195 0 319.5 -119t124.5 -322q0 -86 -20 -163h-736v-25q0 -72 73 -134.5t200 -62.5q156 0 250 72l80 -182q-150 -103 -351 -103q-236 0 -374 119t-138 326zM346 590h492h2q2 4 2 20q0 80 -59.5 135.5t-170.5 55.5q-102 0 -176 -62.5
t-90 -148.5zM553 1139l340 295h244l-398 -295h-186z" />
    <glyph glyph-name="ecircumflex" unicode="&#xea;" horiz-adv-x="1132" 
d="M57 420q0 246 164 420t408 174q195 0 319.5 -119t124.5 -322q0 -86 -20 -163h-736v-25q0 -72 73 -134.5t200 -62.5q156 0 250 72l80 -182q-150 -103 -351 -103q-236 0 -374 119t-138 326zM346 590h492h2q2 4 2 20q0 80 -59.5 135.5t-170.5 55.5q-102 0 -176 -62.5
t-90 -148.5zM416 1139l254 295h233l127 -295h-156l-110 182l-184 -182h-164z" />
    <glyph glyph-name="edieresis" unicode="&#xeb;" horiz-adv-x="1132" 
d="M57 420q0 246 164 420t408 174q195 0 319.5 -119t124.5 -322q0 -86 -20 -163h-736v-25q0 -72 73 -134.5t200 -62.5q156 0 250 72l80 -182q-150 -103 -351 -103q-236 0 -374 119t-138 326zM346 590h492h2q2 4 2 20q0 80 -59.5 135.5t-170.5 55.5q-102 0 -176 -62.5
t-90 -148.5zM391 1235q0 61 48 108.5t108 47.5q53 0 88 -35t35 -88q0 -61 -47.5 -108.5t-108.5 -47.5q-51 0 -87 36t-36 87zM823 1235q0 61 48.5 108.5t107.5 47.5q53 0 89 -35t36 -88q0 -61 -48 -108.5t-110 -47.5q-53 0 -88 36t-35 87z" />
    <glyph glyph-name="igrave" unicode="&#xec;" horiz-adv-x="518" 
d="M18 0l220 989h260l-219 -989h-261zM119 1434h239l209 -295h-182z" />
    <glyph glyph-name="iacute" unicode="&#xed;" horiz-adv-x="518" 
d="M18 0l220 989h260l-219 -989h-261zM229 1139l340 295h244l-397 -295h-187z" />
    <glyph glyph-name="icircumflex" unicode="&#xee;" horiz-adv-x="518" 
d="M18 0l220 989h260l-219 -989h-261zM94 1139l254 295h234l127 -295h-156l-111 182l-184 -182h-164z" />
    <glyph glyph-name="idieresis" unicode="&#xef;" horiz-adv-x="518" 
d="M18 0l220 989h260l-219 -989h-261zM70 1235q0 61 48 108.5t107 47.5q53 0 88 -35t35 -88q0 -61 -47 -108.5t-108 -47.5q-53 0 -88 36t-35 87zM502 1235q0 61 48 108.5t107 47.5q53 0 89 -35t36 -88q0 -61 -48 -108.5t-109 -47.5q-51 0 -87 36t-36 87z" />
    <glyph glyph-name="eth" unicode="&#xf0;" horiz-adv-x="1177" 
d="M51 406q0 225 144.5 380.5t353.5 155.5q246 0 336 -223q-39 168 -242 371l-330 -97l-24 121l248 74l-111 88l184 190q131 -102 219 -192l226 67l26 -120l-161 -50q210 -263 210 -541q0 -277 -158.5 -466t-420.5 -189q-225 0 -362.5 118t-137.5 313zM319 420
q0 -100 61.5 -156.5t174.5 -56.5q121 0 202 85t81 212q0 86 -63.5 147.5t-180.5 61.5t-196 -85t-79 -208z" />
    <glyph glyph-name="ntilde" unicode="&#xf1;" horiz-adv-x="1185" 
d="M33 0l219 989h260l-29 -127q160 152 330 152q143 0 226 -68.5t83 -183.5q0 -31 -10 -82l-149 -680h-263l134 600q8 37 8 57q0 125 -170 125q-113 0 -232 -114l-147 -668h-260zM403 1147q27 137 85.5 205.5t162.5 68.5q61 0 103.5 -34.5t74 -68.5t70.5 -34q61 0 92 125
h139q-29 -137 -87 -205.5t-162 -68.5q-49 0 -86 21.5t-55.5 48t-46 48t-58.5 21.5q-66 0 -92 -127h-140z" />
    <glyph glyph-name="ograve" unicode="&#xf2;" horiz-adv-x="1177" 
d="M55 426q0 238 164 413t408 175q231 0 361 -125t130 -326q0 -238 -163.5 -413t-409.5 -175q-231 0 -360.5 125t-129.5 326zM324 438q0 -106 61 -168.5t170 -62.5q127 0 210 102.5t83 241.5q0 109 -61.5 170t-168.5 61q-127 0 -210.5 -103.5t-83.5 -240.5zM451 1434h239
l209 -295h-182z" />
    <glyph glyph-name="oacute" unicode="&#xf3;" horiz-adv-x="1177" 
d="M55 426q0 238 164 413t408 175q231 0 361 -125t130 -326q0 -238 -163.5 -413t-409.5 -175q-231 0 -360.5 125t-129.5 326zM324 438q0 -106 61 -168.5t170 -62.5q127 0 210 102.5t83 241.5q0 109 -61.5 170t-168.5 61q-127 0 -210.5 -103.5t-83.5 -240.5zM559 1139
l340 295h244l-398 -295h-186z" />
    <glyph glyph-name="ocircumflex" unicode="&#xf4;" horiz-adv-x="1177" 
d="M55 426q0 238 164 413t408 175q231 0 361 -125t130 -326q0 -238 -163.5 -413t-409.5 -175q-231 0 -360.5 125t-129.5 326zM324 438q0 -106 61 -168.5t170 -62.5q127 0 210 102.5t83 241.5q0 109 -61.5 170t-168.5 61q-127 0 -210.5 -103.5t-83.5 -240.5zM424 1139
l254 295h233l127 -295h-155l-111 182l-184 -182h-164z" />
    <glyph glyph-name="otilde" unicode="&#xf5;" horiz-adv-x="1177" 
d="M55 426q0 238 164 413t408 175q231 0 361 -125t130 -326q0 -238 -163.5 -413t-409.5 -175q-231 0 -360.5 125t-129.5 326zM324 438q0 -106 61 -168.5t170 -62.5q127 0 210 102.5t83 241.5q0 109 -61.5 170t-168.5 61q-127 0 -210.5 -103.5t-83.5 -240.5zM397 1147
q27 137 85.5 205.5t162.5 68.5q49 0 86 -21.5t56.5 -47t47 -47t58.5 -21.5q61 0 92 125h139q-29 -137 -87.5 -205.5t-162.5 -68.5q-49 0 -85.5 21.5t-55 48t-46.5 48t-58 21.5q-66 0 -92 -127h-140z" />
    <glyph glyph-name="odieresis" unicode="&#xf6;" horiz-adv-x="1177" 
d="M55 426q0 238 164 413t408 175q231 0 361 -125t130 -326q0 -238 -163.5 -413t-409.5 -175q-231 0 -360.5 125t-129.5 326zM324 438q0 -106 61 -168.5t170 -62.5q127 0 210 102.5t83 241.5q0 109 -61.5 170t-168.5 61q-127 0 -210.5 -103.5t-83.5 -240.5zM399 1235
q0 61 48.5 108.5t107.5 47.5q53 0 88 -35t35 -88q0 -61 -47 -108.5t-109 -47.5q-51 0 -87 36t-36 87zM831 1235q0 61 48.5 108.5t107.5 47.5q53 0 89 -35t36 -88q0 -61 -48 -108.5t-110 -47.5q-53 0 -88 36t-35 87z" />
    <glyph glyph-name="divide" unicode="&#xf7;" horiz-adv-x="1046" 
d="M84 610l35 162h928l-35 -162h-928zM358 311q0 55 40 95t96 40q47 0 80.5 -33.5t33.5 -80.5q0 -55 -41 -95t-96 -40q-47 0 -80 33.5t-33 80.5zM520 1044q0 55 40 95.5t95 40.5q47 0 81 -34t34 -81q0 -55 -41 -95t-96 -40q-45 0 -79 33.5t-34 80.5z" />
    <glyph glyph-name="oslash" unicode="&#xf8;" horiz-adv-x="1177" 
d="M-33 0l168 156q-80 111 -80 270q0 238 164 413t408 175q197 0 323 -94l76 69h174l-166 -153q84 -113 84 -273q0 -238 -163.5 -413t-409.5 -175q-203 0 -330 99l-78 -74h-170zM324 438q0 -55 14 -92l424 395q-57 41 -144 41q-127 0 -210.5 -103.5t-83.5 -240.5zM406 250
q57 -43 149 -43q127 0 210 102.5t83 241.5q0 51 -17 96z" />
    <glyph glyph-name="ugrave" unicode="&#xf9;" horiz-adv-x="1185" 
d="M74 227q0 41 12 82l150 680h260l-131 -598q-8 -37 -9 -57q0 -63 46.5 -95t121.5 -32q117 0 234 117l147 665h260l-219 -989h-260l29 127q-160 -152 -330 -152q-143 0 -227 69t-84 183zM457 1434h239l209 -295h-182z" />
    <glyph glyph-name="uacute" unicode="&#xfa;" horiz-adv-x="1185" 
d="M74 227q0 41 12 82l150 680h260l-131 -598q-8 -37 -9 -57q0 -63 46.5 -95t121.5 -32q117 0 234 117l147 665h260l-219 -989h-260l29 127q-160 -152 -330 -152q-143 0 -227 69t-84 183zM565 1139l340 295h244l-397 -295h-187z" />
    <glyph glyph-name="ucircumflex" unicode="&#xfb;" horiz-adv-x="1185" 
d="M74 227q0 41 12 82l150 680h260l-131 -598q-8 -37 -9 -57q0 -63 46.5 -95t121.5 -32q117 0 234 117l147 665h260l-219 -989h-260l29 127q-160 -152 -330 -152q-143 0 -227 69t-84 183zM430 1139l254 295h234l126 -295h-155l-111 182l-184 -182h-164z" />
    <glyph glyph-name="udieresis" unicode="&#xfc;" horiz-adv-x="1185" 
d="M74 227q0 41 12 82l150 680h260l-131 -598q-8 -37 -9 -57q0 -63 46.5 -95t121.5 -32q117 0 234 117l147 665h260l-219 -989h-260l29 127q-160 -152 -330 -152q-143 0 -227 69t-84 183zM410 1235q0 61 48 108.5t107 47.5q53 0 88 -35t35 -88q0 -61 -47 -108.5t-109 -47.5
q-53 0 -87.5 36t-34.5 87zM842 1235q0 61 48 108.5t107 47.5q53 0 89 -35t36 -88q0 -61 -48 -108.5t-109 -47.5q-51 0 -87 36t-36 87z" />
    <glyph glyph-name="yacute" unicode="&#xfd;" horiz-adv-x="1050" 
d="M-98 -377l86 225q31 -14 100 -14q78 0 123 68l61 94l-176 993h271l104 -688l414 688h286l-720 -1151q-80 -131 -169 -185t-214 -54h-7q-92 0 -159 24zM496 1139l340 295h243l-397 -295h-186z" />
    <glyph glyph-name="thorn" unicode="&#xfe;" horiz-adv-x="1193" 
d="M-66 -377l385 1743h261l-111 -500q125 147 299 148q170 0 272.5 -108.5t102.5 -301.5q0 -154 -58.5 -295t-180 -237.5t-281.5 -96.5q-211 0 -316 156l-112 -508h-261zM348 322q74 -115 232 -115q127 0 208.5 101.5t81.5 242.5q0 104 -61 167.5t-158 63.5
q-131 0 -225 -118z" />
    <glyph glyph-name="ydieresis" unicode="&#xff;" horiz-adv-x="1050" 
d="M-98 -377l86 225q31 -14 100 -14q78 0 123 68l61 94l-176 993h271l104 -688l414 688h286l-720 -1151q-80 -131 -169 -185t-214 -54h-7q-92 0 -159 24zM336 1235q0 61 48 108.5t108 47.5q53 0 87.5 -35t34.5 -88q0 -61 -47 -108.5t-108 -47.5q-53 0 -88 36t-35 87z
M768 1235q0 61 48 108.5t108 47.5q53 0 89 -35t36 -88q0 -61 -48.5 -108.5t-109.5 -47.5q-51 0 -87 36t-36 87z" />
    <glyph glyph-name="OE" unicode="&#x152;" horiz-adv-x="2220" 
d="M90 588q0 231 107.5 416.5t283.5 283.5t383 98q319 0 447 -233l47 213h964l-55 -256h-674l-63 -287h659l-57 -256h-659l-68 -311h674l-58 -256h-964l33 156q-158 -180 -426 -181q-242 0 -408 173.5t-166 439.5zM395 606q0 -168 103.5 -270.5t265.5 -102.5q117 0 221 58
t170 158l90 411q-33 127 -129 197.5t-233 70.5q-211 0 -349.5 -151.5t-138.5 -370.5z" />
    <glyph glyph-name="oe" unicode="&#x153;" horiz-adv-x="1906" 
d="M55 426q0 231 160 409.5t408 178.5q141 0 241.5 -67.5t141.5 -151.5q55 63 99 102t128 78t178 39q188 0 314 -117t126 -324q0 -85 -20 -163h-725q-2 -4 -2 -25q0 -76 72.5 -136.5t195.5 -60.5q152 0 246 72l80 -182q-145 -102 -346 -103q-150 0 -257.5 67t-148.5 153
q-61 -68 -99 -104t-124 -76t-182 -40q-219 0 -352.5 120t-133.5 331zM324 438q0 -109 60 -170t167 -61q123 0 206 101.5t83 242.5q0 115 -63.5 173t-162.5 58q-121 0 -205.5 -100t-84.5 -244zM1133 590h487v20q0 82 -56.5 136.5t-166.5 54.5q-102 0 -176 -65.5t-88 -145.5z
" />
    <glyph glyph-name="Ydieresis" unicode="&#x178;" horiz-adv-x="1320" 
d="M182 1366h316l217 -547l459 547h346l-699 -807l-125 -559h-290l122 559zM553 1589q0 61 48 108.5t108 47.5q53 0 87.5 -35t34.5 -88q0 -61 -47 -108.5t-108 -47.5q-53 0 -88 35t-35 88zM985 1589q0 61 48 108.5t108 47.5q53 0 89 -35t36 -88q0 -61 -48.5 -108.5
t-109.5 -47.5q-51 0 -87 35t-36 88z" />
    <glyph glyph-name="circumflex" unicode="&#x2c6;" horiz-adv-x="614" 
d="M141 1139l254 295h234l127 -295h-156l-111 182l-184 -182h-164z" />
    <glyph glyph-name="tilde" unicode="&#x2dc;" horiz-adv-x="669" 
d="M143 1147q27 137 85.5 205.5t162.5 68.5q49 0 86 -21.5t56.5 -47t47 -47t58.5 -21.5q61 0 92 125h139q-29 -137 -87 -205.5t-162 -68.5q-49 0 -86 21.5t-55.5 48t-46 48t-58.5 21.5q-66 0 -92 -127h-140z" />
    <glyph glyph-name="uni2000" unicode="&#x2000;" horiz-adv-x="924" 
 />
    <glyph glyph-name="uni2001" unicode="&#x2001;" horiz-adv-x="1849" 
 />
    <glyph glyph-name="uni2002" unicode="&#x2002;" horiz-adv-x="924" 
 />
    <glyph glyph-name="uni2003" unicode="&#x2003;" horiz-adv-x="1849" 
 />
    <glyph glyph-name="uni2004" unicode="&#x2004;" horiz-adv-x="616" 
 />
    <glyph glyph-name="uni2005" unicode="&#x2005;" horiz-adv-x="462" 
 />
    <glyph glyph-name="uni2006" unicode="&#x2006;" horiz-adv-x="308" 
 />
    <glyph glyph-name="uni2007" unicode="&#x2007;" horiz-adv-x="308" 
 />
    <glyph glyph-name="uni2008" unicode="&#x2008;" horiz-adv-x="231" 
 />
    <glyph glyph-name="uni2009" unicode="&#x2009;" horiz-adv-x="369" 
 />
    <glyph glyph-name="uni200A" unicode="&#x200a;" horiz-adv-x="102" 
 />
    <glyph glyph-name="uni2010" unicode="&#x2010;" horiz-adv-x="614" 
d="M37 385l47 221h491l-47 -221h-491z" />
    <glyph glyph-name="uni2011" unicode="&#x2011;" horiz-adv-x="614" 
d="M37 385l47 221h491l-47 -221h-491z" />
    <glyph glyph-name="figuredash" unicode="&#x2012;" horiz-adv-x="614" 
d="M37 385l47 221h491l-47 -221h-491z" />
    <glyph glyph-name="endash" unicode="&#x2013;" horiz-adv-x="1214" 
d="M37 385l47 221h1092l-48 -221h-1091z" />
    <glyph glyph-name="emdash" unicode="&#x2014;" horiz-adv-x="1705" 
d="M37 385l47 221h1583l-47 -221h-1583z" />
    <glyph glyph-name="quoteleft" unicode="&#x2018;" horiz-adv-x="522" 
d="M186 977q0 117 86 232.5t215 179.5l93 -99q-63 -29 -121 -75t-80 -97q6 2 22 2q53 0 89 -34.5t36 -98.5q0 -72 -56 -124t-126 -52q-66 0 -112 44t-46 122z" />
    <glyph glyph-name="quoteright" unicode="&#x2019;" horiz-adv-x="522" 
d="M203 907q152 70 200 172q-6 -2 -22 -2q-53 0 -90 35t-37 98q0 72 56.5 124t125.5 52q68 0 114 -43.5t46 -123.5q0 -115 -86 -231t-215 -179z" />
    <glyph glyph-name="quotesinglbase" unicode="&#x201a;" horiz-adv-x="522" 
d="M-37 -172q156 74 201 172h-23q-53 0 -89 35t-36 98q0 72 56.5 124t126.5 52q66 0 111.5 -44t45.5 -124q0 -115 -86 -231.5t-215 -177.5z" />
    <glyph glyph-name="quotedblleft" unicode="&#x201c;" horiz-adv-x="940" 
d="M188 977q0 117 86 232.5t215 179.5l95 -99q-63 -29 -120.5 -75t-80.5 -97q4 2 20 2q53 0 90 -34.5t37 -98.5q0 -72 -56 -124t-126 -52q-66 0 -113 44t-47 122zM606 977q0 117 86 232.5t215 179.5l92 -99q-61 -29 -119.5 -75t-80.5 -97q4 2 20 2q53 0 90 -34.5t37 -98.5
q0 -72 -56 -124t-126 -52q-66 0 -112 44t-46 122z" />
    <glyph glyph-name="quotedblright" unicode="&#x201d;" horiz-adv-x="940" 
d="M203 907q152 70 200 172q-6 -2 -22 -2q-53 0 -90 35t-37 98q0 72 56.5 124t125.5 52q68 0 114 -43.5t46 -123.5q0 -115 -86 -231t-215 -179zM618 907q61 29 120 75t81 97q-6 -2 -22 -2q-53 0 -89 35t-36 98q0 72 55 124t125 52q68 0 114 -43.5t46 -123.5q0 -115 -86 -231
t-215 -179z" />
    <glyph glyph-name="quotedblbase" unicode="&#x201e;" horiz-adv-x="940" 
d="M-37 -172q156 74 201 172h-23q-53 0 -89 35t-36 98q0 72 56.5 124t126.5 52q66 0 111.5 -44t45.5 -124q0 -115 -86 -231.5t-215 -177.5zM379 -172q156 74 201 172h-21q-53 0 -90 35t-37 98q0 72 56.5 124t125.5 52q66 0 112 -44t46 -124q0 -117 -85 -232.5t-214 -176.5z
" />
    <glyph glyph-name="bullet" unicode="&#x2022;" horiz-adv-x="733" 
d="M121 473q0 109 81 187.5t191 78.5q94 0 156.5 -62.5t62.5 -156.5q0 -109 -80.5 -187.5t-191.5 -78.5q-94 0 -156.5 62.5t-62.5 156.5z" />
    <glyph glyph-name="ellipsis" unicode="&#x2026;" horiz-adv-x="1572" 
d="M16 129q0 74 54.5 127t128.5 53q63 0 107 -45t44 -108q0 -74 -54 -127.5t-128 -53.5q-63 0 -107.5 45.5t-44.5 108.5zM541 129q0 74 54 127t128 53q63 0 107 -45t44 -108q0 -74 -54 -127.5t-128 -53.5q-63 0 -107 45.5t-44 108.5zM1067 129q0 74 53.5 127t126.5 53
q63 0 107.5 -45t44.5 -108q0 -74 -54 -127.5t-128 -53.5q-63 0 -106.5 45.5t-43.5 108.5z" />
    <glyph glyph-name="uni202F" unicode="&#x202f;" horiz-adv-x="369" 
 />
    <glyph glyph-name="guilsinglleft" unicode="&#x2039;" horiz-adv-x="692" 
d="M59 498l410 362h250l-418 -373l238 -358h-234z" />
    <glyph glyph-name="guilsinglright" unicode="&#x203a;" horiz-adv-x="692" 
d="M-23 129l418 373l-237 358h233l246 -368l-410 -363h-250z" />
    <glyph glyph-name="uni205F" unicode="&#x205f;" horiz-adv-x="462" 
 />
    <glyph glyph-name="Euro" unicode="&#x20ac;" horiz-adv-x="1452" 
d="M35 461l35 162h77q4 70 15 125h-64l37 161h74q92 221 290.5 350.5t442.5 129.5q236 0 388.5 -109t217.5 -279l-278 -94q-39 106 -130 164.5t-212 58.5q-119 0 -221.5 -59t-169.5 -162h522l-37 -161h-553q-16 -82 -16 -125h542l-37 -162h-481q41 -104 134.5 -166
t224.5 -62q88 0 176 43t145 115l225 -151q-109 -139 -260 -202t-303 -63q-252 0 -433 132.5t-226 353.5h-125z" />
    <glyph glyph-name="trademark" unicode="&#x2122;" horiz-adv-x="929" 
d="M215 1313l10 53h312l-11 -53h-127l-88 -398h-57l88 398h-127zM512 915l98 451h88l60 -328l203 328h88l-99 -451h-57l82 373l-236 -373h-16l-72 373l-82 -373h-57z" />
    <glyph glyph-name="uniE000" unicode="&#xe000;" horiz-adv-x="990" 
d="M0 990h990v-990h-990v990z" />
    <glyph glyph-name="uniFB01" unicode="&#xfb01;" horiz-adv-x="1187" 
d="M78 0l168 762h-164l51 227h162l8 41q78 356 371 356q131 0 221 -55l-94 -186q-35 29 -94 29q-104 0 -142 -144l-10 -41h203l-51 -227h-201l-168 -762h-260zM688 0l219 989h260l-219 -989h-260zM936 1229q0 80 54 128t120 48q61 0 101 -39t40 -94q0 -80 -55 -128t-121 -48
q-59 0 -99 39t-40 94z" />
    <glyph glyph-name="uniFB02" unicode="&#xfb02;" horiz-adv-x="1187" 
d="M78 0l168 762h-164l51 227h162l8 41q78 356 371 356q131 0 221 -55l-94 -186q-35 29 -94 29q-104 0 -142 -144l-10 -41h203l-51 -227h-201l-168 -762h-260zM688 0l301 1366h260l-301 -1366h-260z" />
    <glyph glyph-name="uniFB03" unicode="&#xfb03;" horiz-adv-x="1857" 
d="M78 0l168 762h-164l51 227h162l8 41q86 356 371 356q178 0 274 -98l-131 -153q-41 39 -110 39q-57 0 -90 -35t-52 -109l-10 -41h203l-51 -227h-201l-168 -762h-260zM748 0l167 762h-163l51 227h162l8 41q78 356 370 356q131 0 222 -55l-95 -186q-35 29 -94 29
q-104 0 -141 -144l-10 -41h202l-51 -227h-200l-168 -762h-260zM1360 0l219 989h260l-219 -989h-260zM1608 1229q0 80 54 128t120 48q61 0 101 -39t40 -94q0 -80 -55 -128t-121 -48q-59 0 -99 39t-40 94z" />
    <glyph glyph-name="uniFB04" unicode="&#xfb04;" horiz-adv-x="1857" 
d="M78 0l168 762h-164l51 227h162l8 41q86 356 371 356q178 0 274 -98l-131 -153q-41 39 -110 39q-57 0 -90 -35t-52 -109l-10 -41h203l-51 -227h-201l-168 -762h-260zM748 0l167 762h-163l51 227h162l8 41q78 356 370 356q131 0 222 -55l-95 -186q-35 29 -94 29
q-104 0 -141 -144l-10 -41h202l-51 -227h-200l-168 -762h-260zM1360 0l301 1366h260l-301 -1366h-260z" />
    <hkern g1="A,Agrave,Aacute,Acircumflex,Atilde,Adieresis,Aring"
	g2="J"
	k="-41" />
    <hkern g1="A,Agrave,Aacute,Acircumflex,Atilde,Adieresis,Aring"
	g2="S"
	k="29" />
    <hkern g1="A,Agrave,Aacute,Acircumflex,Atilde,Adieresis,Aring"
	g2="T"
	k="152" />
    <hkern g1="A,Agrave,Aacute,Acircumflex,Atilde,Adieresis,Aring"
	g2="U,Ugrave,Uacute,Ucircumflex,Udieresis"
	k="88" />
    <hkern g1="A,Agrave,Aacute,Acircumflex,Atilde,Adieresis,Aring"
	g2="C,G,O,Q,Ccedilla,Ograve,Oacute,Ocircumflex,Otilde,Odieresis,Oslash,OE"
	k="90" />
    <hkern g1="A,Agrave,Aacute,Acircumflex,Atilde,Adieresis,Aring"
	g2="V"
	k="117" />
    <hkern g1="A,Agrave,Aacute,Acircumflex,Atilde,Adieresis,Aring"
	g2="W"
	k="102" />
    <hkern g1="A,Agrave,Aacute,Acircumflex,Atilde,Adieresis,Aring"
	g2="Y,Yacute,Ydieresis"
	k="158" />
    <hkern g1="A,Agrave,Aacute,Acircumflex,Atilde,Adieresis,Aring"
	g2="question"
	k="152" />
    <hkern g1="A,Agrave,Aacute,Acircumflex,Atilde,Adieresis,Aring"
	g2="asterisk"
	k="186" />
    <hkern g1="A,Agrave,Aacute,Acircumflex,Atilde,Adieresis,Aring"
	g2="quotedbl,quotesingle,registered,quoteleft,quoteright,quotedblleft,quotedblright,trademark"
	k="193" />
    <hkern g1="A,Agrave,Aacute,Acircumflex,Atilde,Adieresis,Aring"
	g2="f"
	k="41" />
    <hkern g1="A,Agrave,Aacute,Acircumflex,Atilde,Adieresis,Aring"
	g2="t"
	k="47" />
    <hkern g1="A,Agrave,Aacute,Acircumflex,Atilde,Adieresis,Aring"
	g2="u"
	k="27" />
    <hkern g1="A,Agrave,Aacute,Acircumflex,Atilde,Adieresis,Aring"
	g2="v"
	k="41" />
    <hkern g1="A,Agrave,Aacute,Acircumflex,Atilde,Adieresis,Aring"
	g2="w"
	k="29" />
    <hkern g1="A,Agrave,Aacute,Acircumflex,Atilde,Adieresis,Aring"
	g2="y,yacute,ydieresis"
	k="41" />
    <hkern g1="B"
	g2="T"
	k="29" />
    <hkern g1="B"
	g2="V"
	k="35" />
    <hkern g1="B"
	g2="W"
	k="20" />
    <hkern g1="B"
	g2="Y,Yacute,Ydieresis"
	k="61" />
    <hkern g1="B"
	g2="quotedbl,quotesingle,registered,quoteleft,quoteright,quotedblleft,quotedblright,trademark"
	k="20" />
    <hkern g1="C,Ccedilla"
	g2="S"
	k="-14" />
    <hkern g1="C,Ccedilla"
	g2="T"
	k="14" />
    <hkern g1="C,Ccedilla"
	g2="C,G,O,Q,Ccedilla,Ograve,Oacute,Ocircumflex,Otilde,Odieresis,Oslash,OE"
	k="-14" />
    <hkern g1="C,Ccedilla"
	g2="V"
	k="27" />
    <hkern g1="C,Ccedilla"
	g2="W"
	k="20" />
    <hkern g1="C,Ccedilla"
	g2="Y,Yacute,Ydieresis"
	k="68" />
    <hkern g1="C,Ccedilla"
	g2="question"
	k="14" />
    <hkern g1="C,Ccedilla"
	g2="A,Agrave,Aacute,Acircumflex,Atilde,Adieresis,Aring,AE"
	k="14" />
    <hkern g1="D,O,Q,Eth,Ograve,Oacute,Ocircumflex,Otilde,Odieresis,Oslash,Thorn"
	g2="J"
	k="41" />
    <hkern g1="D,O,Q,Eth,Ograve,Oacute,Ocircumflex,Otilde,Odieresis,Oslash,Thorn"
	g2="T"
	k="76" />
    <hkern g1="D,O,Q,Eth,Ograve,Oacute,Ocircumflex,Otilde,Odieresis,Oslash,Thorn"
	g2="V"
	k="76" />
    <hkern g1="D,O,Q,Eth,Ograve,Oacute,Ocircumflex,Otilde,Odieresis,Oslash,Thorn"
	g2="W"
	k="68" />
    <hkern g1="D,O,Q,Eth,Ograve,Oacute,Ocircumflex,Otilde,Odieresis,Oslash,Thorn"
	g2="Y,Yacute,Ydieresis"
	k="129" />
    <hkern g1="D,O,Q,Eth,Ograve,Oacute,Ocircumflex,Otilde,Odieresis,Oslash,Thorn"
	g2="question"
	k="47" />
    <hkern g1="D,O,Q,Eth,Ograve,Oacute,Ocircumflex,Otilde,Odieresis,Oslash,Thorn"
	g2="quotedbl,quotesingle,registered,quoteleft,quoteright,quotedblleft,quotedblright,trademark"
	k="20" />
    <hkern g1="D,O,Q,Eth,Ograve,Oacute,Ocircumflex,Otilde,Odieresis,Oslash,Thorn"
	g2="A,Agrave,Aacute,Acircumflex,Atilde,Adieresis,Aring,AE"
	k="35" />
    <hkern g1="D,O,Q,Eth,Ograve,Oacute,Ocircumflex,Otilde,Odieresis,Oslash,Thorn"
	g2="X"
	k="61" />
    <hkern g1="D,O,Q,Eth,Ograve,Oacute,Ocircumflex,Otilde,Odieresis,Oslash,Thorn"
	g2="Z"
	k="29" />
    <hkern g1="D,O,Q,Eth,Ograve,Oacute,Ocircumflex,Otilde,Odieresis,Oslash,Thorn"
	g2="comma,period,quotesinglbase,quotedblbase,ellipsis"
	k="49" />
    <hkern g1="F"
	g2="comma,period,quotesinglbase,quotedblbase,ellipsis"
	k="102" />
    <hkern g1="F"
	g2="A,Agrave,Aacute,Acircumflex,Atilde,Adieresis,Aring,AE"
	k="88" />
    <hkern g1="F"
	g2="J"
	k="143" />
    <hkern g1="F"
	g2="ampersand"
	k="27" />
    <hkern g1="G"
	g2="V"
	k="55" />
    <hkern g1="G"
	g2="Y,Yacute,Ydieresis"
	k="82" />
    <hkern g1="G"
	g2="W"
	k="31" />
    <hkern g1="G"
	g2="X"
	k="14" />
    <hkern g1="G"
	g2="question"
	k="27" />
    <hkern g1="G"
	g2="T"
	k="41" />
    <hkern g1="G"
	g2="A,Agrave,Aacute,Acircumflex,Atilde,Adieresis,Aring,AE"
	k="14" />
    <hkern g1="K"
	g2="Y,Yacute,Ydieresis"
	k="23" />
    <hkern g1="K"
	g2="C,G,O,Q,Ccedilla,Ograve,Oacute,Ocircumflex,Otilde,Odieresis,Oslash,OE"
	k="96" />
    <hkern g1="K"
	g2="a,c,d,e,g,o,q,ae,ccedilla,eth,oslash,oe"
	k="55" />
    <hkern g1="K"
	g2="f"
	k="68" />
    <hkern g1="K"
	g2="t"
	k="102" />
    <hkern g1="K"
	g2="u"
	k="41" />
    <hkern g1="K"
	g2="v"
	k="123" />
    <hkern g1="K"
	g2="w"
	k="82" />
    <hkern g1="K"
	g2="x"
	k="68" />
    <hkern g1="K"
	g2="y,yacute,ydieresis"
	k="123" />
    <hkern g1="K"
	g2="hyphen,endash,emdash"
	k="102" />
    <hkern g1="L"
	g2="V"
	k="184" />
    <hkern g1="L"
	g2="Y,Yacute,Ydieresis"
	k="260" />
    <hkern g1="L"
	g2="W"
	k="150" />
    <hkern g1="L"
	g2="question"
	k="219" />
    <hkern g1="L"
	g2="quotedbl,quotesingle,registered,quoteleft,quoteright,quotedblleft,quotedblright,trademark"
	k="279" />
    <hkern g1="L"
	g2="T"
	k="205" />
    <hkern g1="L"
	g2="ampersand"
	k="8" />
    <hkern g1="L"
	g2="C,G,O,Q,Ccedilla,Ograve,Oacute,Ocircumflex,Otilde,Odieresis,Oslash,OE"
	k="55" />
    <hkern g1="L"
	g2="a,c,d,e,g,o,q,ae,ccedilla,eth,oslash,oe"
	k="23" />
    <hkern g1="L"
	g2="t"
	k="76" />
    <hkern g1="L"
	g2="u"
	k="14" />
    <hkern g1="L"
	g2="U,Ugrave,Uacute,Ucircumflex,Udieresis"
	k="49" />
    <hkern g1="L"
	g2="asterisk"
	k="342" />
    <hkern g1="L"
	g2="v"
	k="111" />
    <hkern g1="L"
	g2="w"
	k="70" />
    <hkern g1="L"
	g2="y,yacute,ydieresis"
	k="111" />
    <hkern g1="P"
	g2="V"
	k="14" />
    <hkern g1="P"
	g2="W"
	k="14" />
    <hkern g1="P"
	g2="Y,Yacute,Ydieresis"
	k="41" />
    <hkern g1="P"
	g2="hyphen,endash,emdash"
	k="55" />
    <hkern g1="P"
	g2="A,Agrave,Aacute,Acircumflex,Atilde,Adieresis,Aring,AE"
	k="152" />
    <hkern g1="P"
	g2="J"
	k="246" />
    <hkern g1="P"
	g2="X"
	k="41" />
    <hkern g1="P"
	g2="ampersand"
	k="68" />
    <hkern g1="P"
	g2="comma,period,quotesinglbase,quotedblbase,ellipsis"
	k="178" />
    <hkern g1="P"
	g2="a,c,d,e,g,o,q,ae,ccedilla,eth,oslash,oe"
	k="35" />
    <hkern g1="R"
	g2="T"
	k="20" />
    <hkern g1="R"
	g2="V"
	k="20" />
    <hkern g1="R"
	g2="Y,Yacute,Ydieresis"
	k="49" />
    <hkern g1="R"
	g2="quotedbl,quotesingle,registered,quoteleft,quoteright,quotedblleft,quotedblright,trademark"
	k="14" />
    <hkern g1="R"
	g2="ampersand"
	k="14" />
    <hkern g1="R"
	g2="a,c,d,e,g,o,q,ae,ccedilla,eth,oslash,oe"
	k="61" />
    <hkern g1="R"
	g2="s"
	k="27" />
    <hkern g1="S"
	g2="v"
	k="27" />
    <hkern g1="S"
	g2="w"
	k="14" />
    <hkern g1="S"
	g2="y,yacute,ydieresis"
	k="27" />
    <hkern g1="S"
	g2="T"
	k="47" />
    <hkern g1="S"
	g2="V"
	k="27" />
    <hkern g1="S"
	g2="W"
	k="20" />
    <hkern g1="S"
	g2="Y,Yacute,Ydieresis"
	k="72" />
    <hkern g1="S"
	g2="A,Agrave,Aacute,Acircumflex,Atilde,Adieresis,Aring,AE"
	k="8" />
    <hkern g1="S"
	g2="t"
	k="29" />
    <hkern g1="S"
	g2="x"
	k="35" />
    <hkern g1="T"
	g2="C,G,O,Q,Ccedilla,Ograve,Oacute,Ocircumflex,Otilde,Odieresis,Oslash,OE"
	k="20" />
    <hkern g1="T"
	g2="A,Agrave,Aacute,Acircumflex,Atilde,Adieresis,Aring,AE"
	k="111" />
    <hkern g1="T"
	g2="J"
	k="178" />
    <hkern g1="T"
	g2="ampersand"
	k="82" />
    <hkern g1="T"
	g2="comma,period,quotesinglbase,quotedblbase,ellipsis"
	k="199" />
    <hkern g1="T"
	g2="a,c,d,e,g,o,q,ae,ccedilla,eth,oslash,oe"
	k="201" />
    <hkern g1="T"
	g2="S"
	k="-8" />
    <hkern g1="T"
	g2="colon,semicolon"
	k="102" />
    <hkern g1="T"
	g2="f"
	k="43" />
    <hkern g1="T"
	g2="m,n,p,r,z"
	k="139" />
    <hkern g1="T"
	g2="s"
	k="166" />
    <hkern g1="T"
	g2="v"
	k="57" />
    <hkern g1="T"
	g2="w"
	k="57" />
    <hkern g1="T"
	g2="x"
	k="78" />
    <hkern g1="T"
	g2="y,yacute,ydieresis"
	k="57" />
    <hkern g1="T"
	g2="hyphen,endash,emdash"
	k="123" />
    <hkern g1="T"
	g2="u"
	k="139" />
    <hkern g1="J,U,Ugrave,Uacute,Ucircumflex,Udieresis"
	g2="A,Agrave,Aacute,Acircumflex,Atilde,Adieresis,Aring,AE"
	k="47" />
    <hkern g1="J,U,Ugrave,Uacute,Ucircumflex,Udieresis"
	g2="comma,period,quotesinglbase,quotedblbase,ellipsis"
	k="61" />
    <hkern g1="J,U,Ugrave,Uacute,Ucircumflex,Udieresis"
	g2="J"
	k="53" />
    <hkern g1="V"
	g2="f"
	k="55" />
    <hkern g1="V"
	g2="m,n,p,r,z"
	k="115" />
    <hkern g1="V"
	g2="s"
	k="102" />
    <hkern g1="V"
	g2="v"
	k="35" />
    <hkern g1="V"
	g2="w"
	k="27" />
    <hkern g1="V"
	g2="x"
	k="55" />
    <hkern g1="V"
	g2="y,yacute,ydieresis"
	k="27" />
    <hkern g1="V"
	g2="hyphen,endash,emdash"
	k="117" />
    <hkern g1="V"
	g2="u"
	k="115" />
    <hkern g1="V"
	g2="A,Agrave,Aacute,Acircumflex,Atilde,Adieresis,Aring,AE"
	k="76" />
    <hkern g1="V"
	g2="comma,period,quotesinglbase,quotedblbase,ellipsis"
	k="184" />
    <hkern g1="V"
	g2="ampersand"
	k="53" />
    <hkern g1="V"
	g2="J"
	k="199" />
    <hkern g1="V"
	g2="C,G,O,Q,Ccedilla,Ograve,Oacute,Ocircumflex,Otilde,Odieresis,Oslash,OE"
	k="8" />
    <hkern g1="V"
	g2="a,c,d,e,g,o,q,ae,ccedilla,eth,oslash,oe"
	k="123" />
    <hkern g1="V"
	g2="t"
	k="35" />
    <hkern g1="V"
	g2="S"
	k="-27" />
    <hkern g1="W"
	g2="f"
	k="35" />
    <hkern g1="W"
	g2="m,n,p,r,z"
	k="61" />
    <hkern g1="W"
	g2="s"
	k="61" />
    <hkern g1="W"
	g2="A,Agrave,Aacute,Acircumflex,Atilde,Adieresis,Aring,AE"
	k="76" />
    <hkern g1="W"
	g2="comma,period,quotesinglbase,quotedblbase,ellipsis"
	k="131" />
    <hkern g1="W"
	g2="ampersand"
	k="20" />
    <hkern g1="W"
	g2="J"
	k="121" />
    <hkern g1="W"
	g2="C,G,O,Q,Ccedilla,Ograve,Oacute,Ocircumflex,Otilde,Odieresis,Oslash,OE"
	k="14" />
    <hkern g1="W"
	g2="a,c,d,e,g,o,q,ae,ccedilla,eth,oslash,oe"
	k="82" />
    <hkern g1="W"
	g2="t"
	k="35" />
    <hkern g1="W"
	g2="u"
	k="61" />
    <hkern g1="W"
	g2="x"
	k="55" />
    <hkern g1="W"
	g2="v"
	k="14" />
    <hkern g1="W"
	g2="y,yacute,ydieresis"
	k="14" />
    <hkern g1="W"
	g2="hyphen,endash,emdash"
	k="76" />
    <hkern g1="W"
	g2="S"
	k="-20" />
    <hkern g1="Y,Yacute,Ydieresis"
	g2="u"
	k="184" />
    <hkern g1="Y,Yacute,Ydieresis"
	g2="x"
	k="158" />
    <hkern g1="Y,Yacute,Ydieresis"
	g2="v"
	k="123" />
    <hkern g1="Y,Yacute,Ydieresis"
	g2="y,yacute,ydieresis"
	k="123" />
    <hkern g1="Y,Yacute,Ydieresis"
	g2="hyphen,endash,emdash"
	k="252" />
    <hkern g1="Y,Yacute,Ydieresis"
	g2="S"
	k="16" />
    <hkern g1="Y,Yacute,Ydieresis"
	g2="A,Agrave,Aacute,Acircumflex,Atilde,Adieresis,Aring,AE"
	k="117" />
    <hkern g1="Y,Yacute,Ydieresis"
	g2="comma,period,quotesinglbase,quotedblbase,ellipsis"
	k="184" />
    <hkern g1="Y,Yacute,Ydieresis"
	g2="ampersand"
	k="88" />
    <hkern g1="Y,Yacute,Ydieresis"
	g2="J"
	k="240" />
    <hkern g1="Y,Yacute,Ydieresis"
	g2="C,G,O,Q,Ccedilla,Ograve,Oacute,Ocircumflex,Otilde,Odieresis,Oslash,OE"
	k="35" />
    <hkern g1="Y,Yacute,Ydieresis"
	g2="colon,semicolon"
	k="143" />
    <hkern g1="Y,Yacute,Ydieresis"
	g2="a,c,d,e,g,o,q,ae,ccedilla,eth,oslash,oe"
	k="254" />
    <hkern g1="Y,Yacute,Ydieresis"
	g2="f"
	k="123" />
    <hkern g1="Y,Yacute,Ydieresis"
	g2="m,n,p,r,z"
	k="184" />
    <hkern g1="Y,Yacute,Ydieresis"
	g2="s"
	k="205" />
    <hkern g1="Y,Yacute,Ydieresis"
	g2="t"
	k="68" />
    <hkern g1="Y,Yacute,Ydieresis"
	g2="w"
	k="123" />
    <hkern g1="Z"
	g2="C,G,O,Q,Ccedilla,Ograve,Oacute,Ocircumflex,Otilde,Odieresis,Oslash,OE"
	k="29" />
    <hkern g1="ampersand"
	g2="y,yacute,ydieresis"
	k="41" />
    <hkern g1="ampersand"
	g2="T"
	k="166" />
    <hkern g1="ampersand"
	g2="Y,Yacute,Ydieresis"
	k="199" />
    <hkern g1="ampersand"
	g2="V"
	k="131" />
    <hkern g1="ampersand"
	g2="W"
	k="90" />
    <hkern g1="ampersand"
	g2="quotedbl,quotesingle,registered,quoteleft,quoteright,quotedblleft,quotedblright,trademark"
	k="23" />
    <hkern g1="asterisk"
	g2="A,Agrave,Aacute,Acircumflex,Atilde,Adieresis,Aring,AE"
	k="186" />
    <hkern g1="asterisk"
	g2="J"
	k="252" />
    <hkern g1="b,o,p,oslash,thorn"
	g2="comma,period,quotesinglbase,quotedblbase,ellipsis"
	k="8" />
    <hkern g1="b,o,p,oslash,thorn"
	g2="Y,Yacute,Ydieresis"
	k="240" />
    <hkern g1="b,o,p,oslash,thorn"
	g2="quotedbl,quotesingle,registered,quoteleft,quoteright,quotedblleft,quotedblright,trademark"
	k="20" />
    <hkern g1="b,o,p,oslash,thorn"
	g2="question"
	k="109" />
    <hkern g1="b,o,p,oslash,thorn"
	g2="T"
	k="201" />
    <hkern g1="b,o,p,oslash,thorn"
	g2="V"
	k="123" />
    <hkern g1="b,o,p,oslash,thorn"
	g2="W"
	k="82" />
    <hkern g1="b,o,p,oslash,thorn"
	g2="x"
	k="70" />
    <hkern g1="c,cent,ccedilla"
	g2="T"
	k="145" />
    <hkern g1="c,cent,ccedilla"
	g2="V"
	k="88" />
    <hkern g1="c,cent,ccedilla"
	g2="W"
	k="55" />
    <hkern g1="c,cent,ccedilla"
	g2="Y,Yacute,Ydieresis"
	k="137" />
    <hkern g1="c,cent,ccedilla"
	g2="question"
	k="55" />
    <hkern g1="c,cent,ccedilla"
	g2="quotedbl,quotesingle,registered,quoteleft,quoteright,quotedblleft,quotedblright,trademark"
	k="14" />
    <hkern g1="colon,semicolon"
	g2="T"
	k="102" />
    <hkern g1="colon,semicolon"
	g2="Y,Yacute,Ydieresis"
	k="143" />
    <hkern g1="e,ae,oe"
	g2="T"
	k="186" />
    <hkern g1="e,ae,oe"
	g2="V"
	k="117" />
    <hkern g1="e,ae,oe"
	g2="W"
	k="82" />
    <hkern g1="e,ae,oe"
	g2="Y,Yacute,Ydieresis"
	k="225" />
    <hkern g1="e,ae,oe"
	g2="question"
	k="88" />
    <hkern g1="e,ae,oe"
	g2="quotedbl,quotesingle,registered,quoteleft,quoteright,quotedblleft,quotedblright,trademark"
	k="14" />
    <hkern g1="e,ae,oe"
	g2="asterisk"
	k="29" />
    <hkern g1="e,ae,oe"
	g2="comma,period,quotesinglbase,quotedblbase,ellipsis"
	k="8" />
    <hkern g1="eth"
	g2="comma,period,quotesinglbase,quotedblbase,ellipsis"
	k="8" />
    <hkern g1="f"
	g2="T"
	k="-82" />
    <hkern g1="f"
	g2="V"
	k="-137" />
    <hkern g1="f"
	g2="W"
	k="-137" />
    <hkern g1="f"
	g2="X"
	k="-82" />
    <hkern g1="f"
	g2="Y,Yacute,Ydieresis"
	k="-129" />
    <hkern g1="f"
	g2="Z"
	k="-82" />
    <hkern g1="f"
	g2="question"
	k="-111" />
    <hkern g1="f"
	g2="quotedbl,quotesingle,registered,quoteleft,quoteright,quotedblleft,quotedblright,trademark"
	k="-131" />
    <hkern g1="f"
	g2="asterisk"
	k="-131" />
    <hkern g1="f"
	g2="comma,period,quotesinglbase,quotedblbase,ellipsis"
	k="96" />
    <hkern g1="f"
	g2="ampersand"
	k="14" />
    <hkern g1="f"
	g2="parenright,bracketright,braceright"
	k="-137" />
    <hkern g1="f"
	g2="exclam,B,D,E,F,H,I,K,L,M,N,P,R,Egrave,Eacute,Ecircumflex,Edieresis,Igrave,Iacute,Icircumflex,Idieresis,Eth,Ntilde"
	k="-82" />
    <hkern g1="f"
	g2="S"
	k="-55" />
    <hkern g1="f"
	g2="U,Ugrave,Uacute,Ucircumflex,Udieresis"
	k="-82" />
    <hkern g1="g,q"
	g2="T"
	k="139" />
    <hkern g1="g,q"
	g2="V"
	k="115" />
    <hkern g1="g,q"
	g2="W"
	k="61" />
    <hkern g1="g,q"
	g2="Y,Yacute,Ydieresis"
	k="184" />
    <hkern g1="g,q"
	g2="question"
	k="55" />
    <hkern g1="g,q"
	g2="j"
	k="-109" />
    <hkern g1="hyphen,endash,emdash"
	g2="V"
	k="117" />
    <hkern g1="hyphen,endash,emdash"
	g2="W"
	k="76" />
    <hkern g1="hyphen,endash,emdash"
	g2="X"
	k="96" />
    <hkern g1="hyphen,endash,emdash"
	g2="Y,Yacute,Ydieresis"
	k="246" />
    <hkern g1="k"
	g2="T"
	k="92" />
    <hkern g1="k"
	g2="V"
	k="55" />
    <hkern g1="k"
	g2="W"
	k="55" />
    <hkern g1="k"
	g2="Y,Yacute,Ydieresis"
	k="150" />
    <hkern g1="k"
	g2="a,c,d,e,g,o,q,ae,ccedilla,eth,oslash,oe"
	k="14" />
    <hkern g1="k"
	g2="bullet"
	k="49" />
    <hkern g1="k"
	g2="hyphen,endash,emdash"
	k="49" />
    <hkern g1="comma,period,quotesinglbase,quotedblbase,ellipsis"
	g2="T"
	k="199" />
    <hkern g1="comma,period,quotesinglbase,quotedblbase,ellipsis"
	g2="V"
	k="172" />
    <hkern g1="comma,period,quotesinglbase,quotedblbase,ellipsis"
	g2="W"
	k="131" />
    <hkern g1="comma,period,quotesinglbase,quotedblbase,ellipsis"
	g2="Y,Yacute,Ydieresis"
	k="184" />
    <hkern g1="comma,period,quotesinglbase,quotedblbase,ellipsis"
	g2="quotedbl,quotesingle,registered,quoteleft,quoteright,quotedblleft,quotedblright,trademark"
	k="170" />
    <hkern g1="comma,period,quotesinglbase,quotedblbase,ellipsis"
	g2="U,Ugrave,Uacute,Ucircumflex,Udieresis"
	k="61" />
    <hkern g1="comma,period,quotesinglbase,quotedblbase,ellipsis"
	g2="j"
	k="-82" />
    <hkern g1="comma,period,quotesinglbase,quotedblbase,ellipsis"
	g2="a,c,d,e,g,o,q,ae,ccedilla,eth,oslash,oe"
	k="8" />
    <hkern g1="comma,period,quotesinglbase,quotedblbase,ellipsis"
	g2="f"
	k="55" />
    <hkern g1="comma,period,quotesinglbase,quotedblbase,ellipsis"
	g2="t"
	k="55" />
    <hkern g1="comma,period,quotesinglbase,quotedblbase,ellipsis"
	g2="v"
	k="131" />
    <hkern g1="comma,period,quotesinglbase,quotedblbase,ellipsis"
	g2="w"
	k="76" />
    <hkern g1="comma,period,quotesinglbase,quotedblbase,ellipsis"
	g2="y,yacute,ydieresis"
	k="111" />
    <hkern g1="comma,period,quotesinglbase,quotedblbase,ellipsis"
	g2="one"
	k="203" />
    <hkern g1="comma,period,quotesinglbase,quotedblbase,ellipsis"
	g2="zero,six"
	k="43" />
    <hkern g1="comma,period,quotesinglbase,quotedblbase,ellipsis"
	g2="seven"
	k="150" />
    <hkern g1="questiondown"
	g2="j"
	k="-328" />
    <hkern g1="quotedbl,quotesingle,quoteleft,quoteright,quotedblleft,quotedblright"
	g2="A,Agrave,Aacute,Acircumflex,Atilde,Adieresis,Aring,AE"
	k="199" />
    <hkern g1="quotedbl,quotesingle,quoteleft,quoteright,quotedblleft,quotedblright"
	g2="C,G,O,Q,Ccedilla,Ograve,Oacute,Ocircumflex,Otilde,Odieresis,Oslash,OE"
	k="14" />
    <hkern g1="quotedbl,quotesingle,quoteleft,quoteright,quotedblleft,quotedblright"
	g2="s"
	k="61" />
    <hkern g1="quotedbl,quotesingle,quoteleft,quoteright,quotedblleft,quotedblright"
	g2="J"
	k="217" />
    <hkern g1="quotedbl,quotesingle,quoteleft,quoteright,quotedblleft,quotedblright"
	g2="comma,period,quotesinglbase,quotedblbase,ellipsis"
	k="170" />
    <hkern g1="quotedbl,quotesingle,quoteleft,quoteright,quotedblleft,quotedblright"
	g2="ampersand"
	k="-8" />
    <hkern g1="r"
	g2="V"
	k="55" />
    <hkern g1="r"
	g2="W"
	k="27" />
    <hkern g1="r"
	g2="Y,Yacute,Ydieresis"
	k="102" />
    <hkern g1="r"
	g2="comma,period,quotesinglbase,quotedblbase,ellipsis"
	k="178" />
    <hkern g1="r"
	g2="T"
	k="70" />
    <hkern g1="r"
	g2="X"
	k="41" />
    <hkern g1="s"
	g2="V"
	k="96" />
    <hkern g1="s"
	g2="W"
	k="102" />
    <hkern g1="s"
	g2="Y,Yacute,Ydieresis"
	k="199" />
    <hkern g1="s"
	g2="T"
	k="152" />
    <hkern g1="s"
	g2="X"
	k="14" />
    <hkern g1="s"
	g2="question"
	k="96" />
    <hkern g1="s"
	g2="quotedbl,quotesingle,registered,quoteleft,quoteright,quotedblleft,quotedblright,trademark"
	k="41" />
    <hkern g1="t"
	g2="V"
	k="68" />
    <hkern g1="t"
	g2="W"
	k="35" />
    <hkern g1="t"
	g2="Y,Yacute,Ydieresis"
	k="76" />
    <hkern g1="t"
	g2="T"
	k="63" />
    <hkern g1="a,u,z"
	g2="V"
	k="115" />
    <hkern g1="a,u,z"
	g2="W"
	k="61" />
    <hkern g1="a,u,z"
	g2="Y,Yacute,Ydieresis"
	k="184" />
    <hkern g1="a,u,z"
	g2="T"
	k="139" />
    <hkern g1="a,u,z"
	g2="question"
	k="55" />
    <hkern g1="v"
	g2="V"
	k="35" />
    <hkern g1="v"
	g2="W"
	k="14" />
    <hkern g1="v"
	g2="Y,Yacute,Ydieresis"
	k="123" />
    <hkern g1="v"
	g2="A,Agrave,Aacute,Acircumflex,Atilde,Adieresis,Aring,AE"
	k="41" />
    <hkern g1="v"
	g2="comma,period,quotesinglbase,quotedblbase,ellipsis"
	k="131" />
    <hkern g1="v"
	g2="T"
	k="57" />
    <hkern g1="v"
	g2="X"
	k="70" />
    <hkern g1="w"
	g2="V"
	k="27" />
    <hkern g1="w"
	g2="Y,Yacute,Ydieresis"
	k="123" />
    <hkern g1="w"
	g2="A,Agrave,Aacute,Acircumflex,Atilde,Adieresis,Aring,AE"
	k="29" />
    <hkern g1="w"
	g2="comma,period,quotesinglbase,quotedblbase,ellipsis"
	k="76" />
    <hkern g1="w"
	g2="T"
	k="57" />
    <hkern g1="w"
	g2="X"
	k="76" />
    <hkern g1="y,yacute,ydieresis"
	g2="V"
	k="27" />
    <hkern g1="y,yacute,ydieresis"
	g2="W"
	k="14" />
    <hkern g1="y,yacute,ydieresis"
	g2="Y,Yacute,Ydieresis"
	k="123" />
    <hkern g1="y,yacute,ydieresis"
	g2="A,Agrave,Aacute,Acircumflex,Atilde,Adieresis,Aring,AE"
	k="41" />
    <hkern g1="y,yacute,ydieresis"
	g2="comma,period,quotesinglbase,quotedblbase,ellipsis"
	k="111" />
    <hkern g1="y,yacute,ydieresis"
	g2="T"
	k="57" />
    <hkern g1="y,yacute,ydieresis"
	g2="X"
	k="70" />
    <hkern g1="y,yacute,ydieresis"
	g2="question"
	k="14" />
    <hkern g1="X"
	g2="C,G,O,Q,Ccedilla,Ograve,Oacute,Ocircumflex,Otilde,Odieresis,Oslash,OE"
	k="61" />
    <hkern g1="X"
	g2="y,yacute,ydieresis"
	k="70" />
    <hkern g1="X"
	g2="w"
	k="76" />
    <hkern g1="X"
	g2="v"
	k="70" />
    <hkern g1="X"
	g2="f"
	k="61" />
    <hkern g1="X"
	g2="t"
	k="61" />
    <hkern g1="X"
	g2="hyphen,endash,emdash"
	k="96" />
    <hkern g1="zero,nine"
	g2="comma,period,quotesinglbase,quotedblbase,ellipsis"
	k="43" />
    <hkern g1="seven"
	g2="comma,period,quotesinglbase,quotedblbase,ellipsis"
	k="193" />
    <hkern g1="x"
	g2="V"
	k="55" />
    <hkern g1="x"
	g2="W"
	k="55" />
    <hkern g1="x"
	g2="Y,Yacute,Ydieresis"
	k="158" />
    <hkern g1="x"
	g2="T"
	k="78" />
    <hkern g1="x"
	g2="a,c,d,e,g,o,q,ae,ccedilla,eth,oslash,oe"
	k="70" />
    <hkern g1="parenleft,bracketleft,braceleft"
	g2="j"
	k="-225" />
  </font>
</defs></svg>
